Chinese gloss	Pa Hng (Guangxi Wenjie)	Page Pa Hng (Guangxi Wenjie)	Pa Hng (Guizhou Gundong)	Page Pa Hng (Guizhou Gundong)	Hm Nai (Longhui Huxingshan)	Page Hm Nai (Longhui Huxingshan)	Hm Nai (Tongdao Chuansuo)	Page Hm Nai (Tongdao Chuansuo)	Hm Nai (Longhui Xiaoshajiang)	Page Hm Nai (Longhui Xiaoshajiang)	Hm Nai (Xupu)	Page Hm Nai (Xupu)
一	jɦʉ³¹		ji²²		i¹³		je³¹	237	i³²⁵	560		
一定	je³¹tĩ³⁵											
一月	l̥a⁵⁵je³¹		l̥a⁵⁵jei²²		tɕa¹³ȵei³¹							
一百零一	jɦʉ³¹pe⁵⁵ta³¹jɦʉ³¹		ji²²pe⁵⁵ta²²ji²²		i¹³pe⁵⁵lɯŋ³¹i¹³							
一起	ɪ̃⁵⁵tɔ⁵⁵		i⁵⁵tai⁵⁵		i¹³tɕhi¹³							
七	tɕɦã⁴⁴		tɕaŋ⁵⁵		tɕa³¹		ȶã³³	237	tɕia³¹	560		
七十	tɕɦã⁴⁴kɦʉ³¹		tɕaŋ⁴⁴ku³¹		tɕa³¹khu³¹							
七月	l̥a⁵⁵tɕɦã⁴⁴		l̥a⁵⁵tɕaŋ³¹		ɕi¹³ȵei³¹							
七百	tɕɦã⁴⁴pe⁵⁵		tɕaŋ⁴⁴pe⁵⁵		tɕa³¹pe⁵⁵							
万							wa⁴²	237				
万（一万）	vɦɛ̃³¹		vɛ²²		wai³¹							
丈夫	a⁴⁴vɪ³¹		lɛ³³vi²²		tɕi³¹nai³³				tɕi³¹nai⁴⁴	559	tɕi⁴⁴lɛ⁴⁴	641
三	pɤ³⁵		pou³⁵		pou⁵³		po³³	237	pou³²⁵	560		
三十	sɔ̃³⁵kɦʉ³¹		saŋ³⁵ku³¹		saŋ³⁵khu³¹							
三十日	sɔ̃³⁵kɦʉ³¹		saŋ³⁵ku³¹		saŋ³⁵khu³¹							
三月	l̥a⁵⁵pɤ³⁵		l̥a⁵⁵pou³⁵		sai¹³ȵei³¹							
三百	sɔ̃³⁵pe⁵⁵		saŋ³⁵pe⁵⁵		saŋ³⁵pe⁵⁵							
三脚架	tɦɤ³³lʉ³⁵qɦɔ̃³¹		tei³³qaŋ²²		naŋ³⁵qhaŋ³¹							
上							a³¹so³³	236				
上（山）	ȵtɕo⁵⁵		ȵo⁵⁵		ȵtɕo⁵⁵							
上个月	ȵtɕo⁵⁵l̥a⁵⁵		tɛ³¹tei³³l̥a⁵⁵		tu³³l̥a⁵⁵to³⁵							
上午	qõ³⁵sɔ̃³¹		qa²²n̥ei³⁵vaŋ³³		te⁵⁵ntuŋ³⁵							
上腭	fɔ³⁵la⁵⁵		a³³hɔ³⁵la⁵⁵		tho⁵³hei³⁵							
上衣	ɤ³¹		qɛ⁵³ou²²		qai⁵³au¹³							
上面	so³⁵		a³³vaŋ³³ȵ̥ei⁵³		qai⁵³waŋ³³							
下							a³³tai¹¹	236				
下（山）	hɔ̃⁵⁵		haŋ⁵⁵		haŋ⁵⁵							
下（看一下）	qɔ³¹		vei³³		sai⁵⁵							
下个月	hɔ̃⁵⁵l̥a⁵⁵		a³³vaŋ²²tei³³l̥a⁵⁵		ti⁵⁵l̥a⁵⁵to³⁵							
下午	kwa⁵⁵sɔ̃³¹		kwa⁵⁵saŋ²²		ŋaŋ³¹ntuŋ³⁵							
下巴	a⁴⁴ŋko³³tɕɦi³¹		a³³ŋou⁴⁴tɕei²²		ha³¹khwa³⁵							
下雨	ntɔ³¹ɔ³⁵mõ⁴⁴		nɔ²²aŋ³⁵moŋ⁴⁴		puŋ³⁵nuŋ³¹							
下雪	ntɔ³¹mɔ̃⁵⁵		nɔ²²maŋ⁵⁵		puŋ³⁵mpaŋ⁵⁵							
下雾	ɔ̃³⁵ho³⁵pɤ⁵⁵pɦẽ⁵⁵		ɔ³⁵		u⁵³ho³⁵							
下霜	nto⁵⁵		lja⁵⁵no⁵⁵		nto⁵⁵							
下面	a³¹qõ³⁵		a³³qoŋ³⁵ȵ̥ei⁵³		kuŋ³⁵le³³							
不	ŋ̩ɦ³³; a³¹		ŋ̩³⁵		a⁵³				a⁵²	561		
不是	a³¹ȵʉ⁵⁵		ŋ̩²²si⁵³		a⁵³juŋ³¹				a⁵²ȵioŋ³¹	559		
不知道											ʌ⁴⁴pi²¹³	642
丑	ȵa⁵³		ȵa⁵³		n̩³⁵				ŋ̥³²⁵	560		
东	tõ⁵⁵		toŋ³³		tuŋ⁵⁵		toŋ⁵⁵	236				
东西	pe⁵⁵tɕhẽ⁵³		qa³³hou³⁵		hou³⁵hou³⁵							
丝	sɪ⁵⁵		si⁵⁵		sI⁵⁵							
两	lɦjɔ̃⁴⁴		ljaŋ³⁵		ljaŋ³¹							
个（一个人）	lɦɛ̃³³		lɛ³³		nai³³							
个（一个碗）	lɔ̃³⁵		laŋ³⁵		naŋ³⁵							
个（指人）									nai⁴⁴	560		
个（指物）									naŋ³²⁵	560		
中午	nõ⁵⁵sɔ̃³¹		ma³³ȵoŋ³⁵n̥ei³⁵		n̥e³⁵ntuŋ³⁵						ŋɛn⁴⁴tɑŋ²⁴	642
中心	qɦɔ³¹sẽ⁵⁵		qɔ²²seŋ⁵⁵		o⁵⁵qhou³¹ntjuŋ³⁵							
中指	tɦɤ³³tɕĩ⁵⁵va³¹		tei³³tɕiŋ⁵⁵va³¹									
中间	qɦɔ³¹sẽ⁵⁵; tɕʉ⁵⁵sẽ⁵⁵		qɔ²²seŋ⁵⁵		o⁵⁵qhou³¹ntjuŋ³⁵							
串（一串珠子)	tɕhɛ⁵³		tɕhɛ⁵³		ɕei⁵³							
为什么	ɪ̃⁵⁵qa³⁵jɔ̃⁵³		i⁵⁵pa²²ka⁵⁵jaŋ⁵³		je⁵⁵mpou³³							
主人	a⁴⁴tɕi³¹		pa²²tɕi²²		tɕu¹³iŋ³³							
乌鸦	la³¹a⁵⁵		lja²²a⁵⁵		la³³a⁵⁵		kə³³po⁴²	236	ŋ²²la²²a⁴⁵	558		
乌龟	vʉ⁵⁵tɕi⁵⁵		hu⁵⁵tɕi⁵⁵		u⁵⁵kwi¹³							
乖（孩子）	kwɛ³¹		kwɛ²²		wo¹³							
九	kɦo³³		ko³³		ko³³		kɔ³³	237	ko⁴⁴	560		
九十	kɦo³³kɦʉ³¹		ko³³ku³¹		ko³³khu³¹							
九月	l̥a⁵⁵kɦo³³		l̥a⁵⁵ko³³		tɕu¹³ȵei³¹							
九百	kɦo³³pe⁵⁵		ko³³pe⁵⁵		ko³³pe⁵⁵							
乞丐	mɦjɛ³³tɦa³¹ɪ̃⁵³		njɛ³³ta²²e⁵³		kau³⁵hwa³⁵tsi¹³							
也	kɤ⁵³		ko³³		ja³¹				ia³¹	561		
乡村	a⁴⁴ɕɔ̃³³		a³³ɕaŋ³³		ɕuŋ⁵⁵							
书	ntɔ³¹		nɔ²²		ntau¹³							
买	ɤ³¹		mi⁴⁴		me²²							
乳头	a⁴⁴ȵtɕɦʉ³³me³⁵		a³³tei²²mei³⁵		ntsu²²ne³⁵							
乳房	a⁴⁴me³⁵		mei³⁵		naŋ³⁵ne³⁵							
事情	si⁵³qo³¹		qo²²si⁵³		si⁵³ȵtɕiŋ³³							
二	va³⁵		va³⁵		wa⁵³		wa³³	237	wa³²⁵	560		
二十	ȵɦã⁴⁴kɦʉ³¹		ȵaŋ⁴⁴ku³¹		ȵa³¹khu³¹		ȵo³³ku³¹	235	nia³¹ku³¹	560		
二十一	ȵɦã⁴⁴kɦʉ³¹je³¹		ȵaŋ⁴⁴ku³¹jei²²		ȵa³¹khu³¹jei¹³							
二十日	ȵɦã³³kɦʉ³¹		ȵaŋ³³ku³¹		ȵa³¹khu³¹							
二月	l̥a⁵⁵va³⁵		l̥a⁵⁵va³⁵		n̥n³¹ȵei³¹				xŋ³¹nie³¹	558		
二百	ȵɦã⁴⁴pe⁵⁵		ȵaŋ⁴⁴pe⁵⁵		ȵa³¹pe⁵⁵							
云	qa³¹tõ⁵⁵		qa³³toŋ⁵⁵		ho³⁵							
五	pja³⁵		tja³⁵		pja⁵³		pja³³	237	pia³¹	560		
五十	pja³⁵kɦʉ³¹		tja³⁵ku³¹		pja⁵³khu³¹							
五月	l̥a⁵⁵pja³⁵		l̥a⁵⁵tja³⁵		n̩²²ȵei³¹							
五百	pja³⁵pe⁵⁵		tja³⁵pe⁵⁵		pja⁵³pe⁵⁵							
井	a⁴⁴qhɔ̃⁵³ɔ̃³⁵		a³³qhaŋ⁵³aŋ³⁵		tuŋ³³aŋ³⁵							
些（一些）	tɕe³⁵		tɕe³⁵		tɕe³⁵							
亩									biou²²	560		
亮	mpɦɪ⁴⁴		a³⁵		mpjei³¹							
亲戚	pa³¹lɦẽ³¹		pa²²leŋ²²		hou³⁵lɯŋ²²							
人	a⁴⁴mɦjɛ³³		njɛ³³		nai³³				nai⁴⁴	558		
什么	qa³⁵jɔ̃⁵³		ka⁵⁵jaŋ⁵³		hou³⁵mpou³³							
今后	tɦa³¹pjɤ⁵³				ta³¹ti³⁵							
今天	ŋ̩³¹n̥e³⁵		ŋ̩²²n̥ei³⁵		n̥e¹³n̥e³⁵				ne⁴⁴ntle³²⁵	558	ȵiɛn²¹³xaeŋ⁴⁴	642
今年	ŋ̩³¹tɕɔ̃⁵⁵		ŋ̩²²tɕaŋ⁵⁵		ne¹³tɕuŋ⁵⁵				nie²²tɕioŋ⁴⁴⁵	558		
今晚	ŋ̩³¹n̥e³⁵qa³¹mɦa³¹;   ŋ̩³¹ŋ̥ŋ³⁵		ŋ̩²²ma²²		ne¹³ma²²							
从...	tɕhɔ̃³¹		thaŋ²²		tshuŋ³⁵							
从前	ŋ̩³⁵kɔ⁵⁵		ka⁵⁵tu³³		tu³³							
仓库	a⁴⁴mɦʉ³¹		a³³tjoŋ²²		naŋ³⁵mpjuŋ²²							
他	nɦʉ³¹		nu²²		nuŋ¹³		mu⁵⁵	236	noŋ²¹²	560		
他们	nɦʉ³¹mʉ⁵⁵		nu²²mu⁵⁵		nuŋ¹³kaŋ¹³							
他俩	nɦʉ³¹va⁵³		nu²²va⁵³lɛ³³		nuŋ¹³wa⁵³nai³³							
他的	nɦʉ³¹ŋ̩³¹		nu²²ȵaŋ²²		nuŋ¹³nuŋ¹³							
件（一件事）	tɦɤ³³		qɔ²²		kau⁵⁵							
件（一件衣）	qɛ⁵³		qɛ⁵³		qai⁵³							
价钱	a⁴⁴qa⁵⁵tɕɦĩ³³		ŋa⁵⁵tɕiŋ³³		tɕa³⁵tɕiŋ³³							
份（一份）	fẽ⁵³		hweŋ⁵⁵		hwɯŋ⁵³							
休息	hẽ³¹jɦa⁴⁴		he²²ja⁴⁴		he¹³kei⁵⁵							
会	pɪ³⁵		pi³⁵		hjei³⁵							
传染	kwa⁵⁵		ŋa⁵⁵		lje³⁵							
伯母	a⁴⁴kɦo³³		a²²mɛ⁵³l̥jo³⁵		ko³³							
伯父	a⁴⁴pi³¹		pa⁵³l̥jo³⁵		pi¹³							
伸（手）	ɕõ³⁵		soŋ²²		lei³⁵							
低	ŋkɦe³¹		ŋi²²		ɴqe²²				nge²²	560		
低（头）	ŋkɦʉ⁴⁴		ŋɔ³⁵		ɴqe²²							
你	mɦʉ³³		mu³³		m̩³¹		mũ⁵⁵	236	m³¹	560		
你们	mʉ⁴⁴		mu³³		m̩³¹kaŋ¹³							
你俩	mɦʉ³³va⁵³		mu³³va⁵³lɛ³³		m̩³¹wa⁵³nai³³							
你的	mɦʉ³³ŋ̩³¹		mu³³ȵaŋ²²		m̩³¹nuŋ¹³							
侄女	a⁴⁴phe⁵³		tjei⁵³seŋ²²		phjei⁵³sɯŋ¹³							
侄子	a⁴⁴tɔ̃³⁵		taŋ³⁵seŋ²²		taŋ³⁵sɯŋ¹³							
便宜	tɕɦʉ⁴⁴		thjei³⁵jɛ³³		phjei¹³ȵei³³							
信	a⁴⁴sẽ⁵⁵		nɔ²²seŋ⁵⁵		sɯŋ³⁵							
修理（钟表）	pɛ̃⁵⁵		pɛ⁵⁵		tsuŋ⁵⁵							
倒（树倒）	kɦwi⁴⁴		maŋ³⁵		kwi³¹							
倒（置）	to⁵⁵		to⁵⁵		tau³⁵							
倒塌	mɔ̃³⁵		maŋ³⁵		maŋ³⁵							
借									qa²¹²	559		
借（碗）	qa³¹		qa²²		qa¹³							
借（钱）	qa³¹		qa²²		qa¹³							
假（话）	ka³¹		tɕa²²		tɕa¹³							
偏	phẽ³¹		thjɛ²²		ȵtɕa³⁵							
做									ie⁴⁵	559		
做（巢）	ɪ̃⁵⁵		i⁵⁵		je⁵⁵							
做（工）	ɪ̃⁵⁵		i⁵⁵		je⁵⁵							
做梦	mpɪ⁵⁵		mi⁵⁵		mpi⁵⁵							
停（风）	tɕɦa⁴⁴		thaŋ⁵³		tsa³¹							
偷	ȵɦi⁴⁴		tɕɔ⁴⁴		n̩³¹							
働（地）	ȵ̥o⁵⁵		ȵ̥o⁵⁵		khwi³⁵							
儿媳	a⁴⁴ȵɪ³⁵		a²²ȵi³⁵		nai³³n̩³⁵							
儿子	a⁴⁴tɔ̃³⁵		lɛ³³taŋ³⁵		nai³³taŋ³⁵				nai⁴⁴taŋ³²⁵	559	lɛ⁴⁴lɑŋ²⁴	641
儿童	ta³⁵qa³¹		ta⁵⁵qa²²		taŋ³⁵ȵei³⁵							
元（一元）	qɛ⁵³		qɛ⁵³		qai⁵³							
先（先去）	ta³¹tʉ⁴⁴; jʉ⁵³											
光滑	ŋkɦʉ³¹; mpɦɪ⁴⁴		veŋ⁵⁵		qhou³¹							
兔子	qa³¹tʉ³⁵		o⁵⁵ɕoŋ³³		mpo³³thu⁵⁵							
八	jɦi³¹		ji³¹		ɕi³¹		ji⁴²	237	si³¹	560		
八十	jɦi³¹kɦʉ³¹		ji³¹ku³¹		ɕi³¹khu³¹							
八月	l̥a⁵⁵jɦi³¹		l̥a⁵⁵ji³¹		pa¹³ȵei³¹							
八百	jɦi³¹pe⁵⁵		ji³¹pe⁵⁵		ɕi³¹pe⁵⁵							
公牛	qa³⁵ŋ̩ɦ³⁵		qa³⁵ŋ̩³³		qa³⁵n̩³³							
公狗	qa³⁵ljɔ̃⁵³		qa³⁵ljaŋ⁵³		qa³⁵ljaŋ⁵³							
公猪	qa³⁵mpe⁵⁵		qa³⁵mi⁵⁵		qa³⁵mpe⁵⁵							
公马	qa³⁵mɦɪ³¹		qa³⁵mi²²		qa³⁵me²²							
公鸡	ŋ̩³¹pa⁵³qɛ³⁵		pa⁵³qɛ³⁵		pa⁵³qai³⁵				pa⁵²qai³²⁵	558		
六	tɕʉ⁵⁵		tɕu⁵⁵		tju⁵⁵		ȶy⁵⁵	237	tiou⁴⁵	560		
六十	tɕʉ⁵⁵kɦʉ³¹		tɕu⁵⁵ku³¹		tju⁵⁵khu³¹							
六指手	mpɛ³⁵va³¹		mɛ³⁵va³¹		mpai⁵³ȵei³⁵ŋkwa¹³							
六月	l̥a⁵⁵tɕʉ⁵⁵		l̥a⁵⁵tɕu⁵⁵		lju³¹ȵei³¹							
六百	tɕʉ⁵⁵pe⁵⁵		tɕu⁵⁵pe⁵⁵		tju⁵⁵pe⁵⁵							
关（门）	kõ³⁵		koŋ³⁵		quŋ³⁵							
兵	jõ³¹		taŋ⁵⁵ljɛ⁵³		pɯŋ⁵⁵							
再	jɤ⁵⁵; tɕo³¹		ha³⁵		tsai³⁵							
写	sa³¹		sa²²		ɕa¹³							
农民	mɦjɛ³³ɪ̃⁵⁵hɤ³⁵		hou³⁵liŋ³³		luŋ³³mɯŋ³³							
冬	kõ³¹				tuŋ⁵⁵							
冬天											laŋ⁴⁴kəŋ²⁴	642
冬瓜	pe³¹tɔ̃³⁵		tjei²²taŋ³⁵		pjei¹³taŋ³⁵mpe⁵⁵							
冰	mɔ̃⁵⁵		haŋ³⁵toŋ³³la³³		mpaŋ⁵⁵							
冷	ȵɔ̃⁵⁵		ȵaŋ⁵⁵		ȵaŋ⁵⁵				niaŋ⁴⁵	560		
凉快	tɕɦĩ³¹		tɕiŋ²²		tsɯŋ²²							
凉水	ɔ̃³⁵tɕɦĩ³¹		aŋ³⁵ljoŋ³³		aŋ³⁵tsɯŋ²²							
减	kɛ³¹		sou³⁵		kei¹³							
凝固	qɔ³⁵				qai³⁵							
几个			tei³⁵lɛ³³		khu³¹ti³⁵							
凳子	tɦɤ³³tɕɦe³³		tai³³tɕei³³		tei³³tɕei³³		tə³³ȶe⁵³	237			tɕiae⁴⁴	642
凹下	ŋkɦe³¹		ŋi²²		wɯŋ¹³							
出	tɤ⁵⁵		tai⁵⁵		tei⁵⁵							
凿子	tɦɤ³³tɕɦĩ³¹		tei³³tɕiŋ²²		tei³³tɕiŋ²²							
刀	tɔ³⁵		tɔ³⁵		tei³³tau³⁵		ta³¹tau¹¹	237	Pa³¹tao³²⁵	559		
刀背	tɦɤ³³sɤ³¹tɔ³⁵		a³³la²²tɔ³⁵		qhu³¹tau³⁵							
刀鞘	a⁴⁴nõ⁵³tɔ³⁵		a³³loŋ⁵⁵tɔ³⁵		ȵuŋ³⁵nɯŋ³³							
分（粮食）	pɔ̃³⁵		paŋ³⁵		paŋ³⁵							
分娩	kõ³⁵vɪ³⁵tɦɤ⁴⁴		tu⁴⁴taŋ³⁵qɔ²²l̥a⁵⁵		kuŋ³⁵taŋ³⁵ȵei³⁵							
切							tə³¹ka¹¹	236				
切（菜）	sɤ⁵⁵		thi³⁵		sei⁵⁵							
划（船）	sɔ̃⁵⁵		saŋ⁵⁵		jou³³							
刚才	qa³⁵pɛ̃⁵⁵; ŋ̩³¹qɛ³¹qɦɤ³³		khɔ⁵⁵qɛ⁵⁵		tɕaŋ⁵⁵qa³⁵							
初一	n̥e³⁵je³¹		hjeŋ³⁵jei²²		ta¹³jei¹³							
初三	n̥e³⁵pɤ³⁵		hjeŋ³⁵pou³⁵		ta¹³pou⁵³							
初五	n̥e³⁵pja³⁵		hjeŋ³⁵tja³⁵		ta¹³pja⁵³							
刨子	tɦɤ³³phɔ̃⁵⁵		tei³³phaŋ⁵⁵		phou⁵³							
利息	qa³⁵lʉ³⁵				ɕi³⁵tɕiŋ³³							
别（吃）	a³¹thõ³⁵		a³¹thoŋ³⁵		a⁵³ja¹³							
别人	mɦjɛ³³		njɛ³³									
刮（风）	phjõ³⁵		thjo³⁵		phjo³⁵							
到	nõ⁵⁵		noŋ⁵⁵		ntuŋ⁵⁵							
刷	swa³³		sɔ⁵³		tsha⁵⁵							
刷子（牙刷）	ja³¹swa³¹		a³³lou⁵⁵ȵ̥i²²		ŋa³³sa⁵⁵							
刺儿	ŋɪ³¹		ŋeŋ²²		ȵtɕiŋ¹³							
刺痒	sɛ̃³⁵		sɛ³⁵		n̥a⁵⁵							
剁（肉）	pɔ³⁵		pha⁵³		sei⁵⁵							
剃（头）	thɤ⁵⁵		thei⁵⁵		thei⁵⁵							
剃头刀	tɔ³⁵thɤ⁵⁵		tɔ³⁵thei⁵⁵ti²²		tau³⁵thei⁵⁵							
前							tə³¹tu³³	237				
前天	tɕɦo³¹n̥e³⁵		tɕo²²n̥ei³⁵		tso²²n̥e³⁵						tu⁴⁴xɛŋ⁴⁴	642
前年	tɕɦo³¹tɕɔ̃⁵⁵		tɕo²²tɕaŋ⁵⁵		tso²²tɕuŋ⁵⁵							
前门	a⁴⁴qɦɔ³¹tɕɦɔ̃³³		a³³ma³¹tɕaŋ³³		ntau²²naŋ³⁵tjuŋ³³							
前面	lɦʉ⁴⁴mpɦʉ⁴⁴		a³³mu³³		ntau³³wo⁵⁵							
剔（牙）	so⁵⁵		qo³⁵		so⁵⁵							
剖（鱼）	pha⁵⁵		pha⁵⁵		pha⁵⁵							
剥（皮）	lɔ⁵³		lɔ⁵³		lau⁵³							
剪	tɛ⁵³		tɛ⁵³		ȵtɕe¹³							
剪刀							pa³³tai⁴²ȵe¹¹	237				
剪子	pa³¹ȵe³¹		pa²²ŋeŋ²²		tei³³ȵtɕe¹³							
割（稻）	ki⁵⁵		ta⁵⁵		ki⁵⁵							
割草											ko⁴⁴ʂɑu²¹³	642
劈（柴）	pha⁵⁵		pha⁵⁵		pha⁵⁵							
力气	jɦa⁴⁴		ja⁴⁴		ntsou³¹							
办法	pɛ̃³⁵fa³¹		paŋ³⁵hwa²²		phai⁵³hwa¹³							
动物油	qa³¹m̥i³⁵		jou³³mi⁵⁵		jou³³mpe⁵⁵							
劳动	ɪ̃⁵⁵hɤ³⁵		i⁵⁵hou³⁵		je⁵⁵hou³⁵							
勤快	ŋkɦe⁴⁴		ŋi⁴⁴		ȵtɕiŋ²²							
勺	a⁴⁴fɔ³⁵pja³⁵		a³³hɔ³⁵tja³⁵									
包（一包糖）	lɪ⁵⁵		ljei⁵⁵									
包（糖）	lɪ⁵⁵		ljei⁵⁵		ŋkwei¹³							
包头巾	qa³¹sɔ⁵³		qa²²so⁵³		qai⁵³ɕau⁵³							
化脓	pɦɪ⁴⁴		pi⁴⁴		pi³¹							
北	pe⁵⁵		pei³¹		pe³⁵		pe⁵⁵	237				
医治	jɦɔ̃³³		jaŋ³³		phu⁵³							
医生	ŋ̩³¹sɔ̃⁴⁴ȵtɕa³⁵		saŋ⁴⁴ȵa³⁵		i⁵⁵sɯŋ⁵⁵							
十	kɦʉ³¹		ku³¹		khu³¹		ku³¹	237	kʰu³¹	560		
十一	kɦʉ³¹je³¹		ku³¹jei²²		khu³¹jei¹³		tã³³ku³¹je³³	235	kʰu³¹iei²¹²	560		
十一日	kɦʉ³¹je³¹		ku³¹jei²²		khu³¹jei¹³							
十一月	l̥a⁵⁵kɦʉ³¹je³¹		l̥a⁵⁵ku³¹jei²²		ɕe³⁵i⁵⁵ȵei³¹							
十七	kɦʉ³¹tɕɦã⁴⁴		ku³¹tɕaŋ⁴⁴		khu³¹tɕa³¹							
十三	kɦʉ³¹pɤ³⁵		ku³¹pou³⁵		khu³¹pou⁵³		tã³³ku³¹	235				
十九	kɦʉ³¹kɦo³³		ku³¹ko³³		khu³¹ko³³							
十二	kɦʉ³¹va³⁵		ku³¹va³⁵		khu³¹wa⁵³		tã³³ku³¹wa³³	235				
十二月	l̥a⁵⁵kɦʉ³¹va³⁵		l̥a⁵⁵ku³¹va³⁵		ɕe³⁵e³⁵ȵei³¹							
十五	kɦʉ³¹pja³⁵		ku³¹tja³⁵		khu³¹pja⁵³							
十五日	kɦʉ³¹pja³⁵		ku³¹tja³⁵		khu³¹pja⁵³							
十八	kɦʉ³¹jɦi³¹		ku³¹ji³¹		khu³¹ɕi³¹							
十六	kɦʉ³¹tɕʉ⁵⁵		ku³¹tɕu⁵⁵		khu³¹tju⁵⁵							
十六日	kɦʉ³¹tɕʉ⁵⁵		ku³¹tɕu⁵⁵		khu³¹tju⁵⁵							
十四	kɦʉ³¹pi³⁵		ku³¹ti³⁵		khu³¹tsi⁵³		tã³³ku³¹pji³³	235				
十月	l̥a⁵⁵kɦʉ³¹		l̥a⁵⁵ku³¹		ɕe³⁵ȵei³¹							
千							ȶhe⁵⁵	237				
千（一千）	ɕẽ⁵⁵		sɛ⁵⁵		ɕei⁵⁵							
升	tɕɦõ³³		seŋ⁵⁵		ɕiŋ⁵⁵							
午饭	sɔ̃³¹		naŋ³³saŋ²²		ɕaŋ¹³hwai⁵³							
半									pai³²⁵, dei²¹²	560		
半（一半）	thõ³⁵		nai²²		ȵtɕhei⁵³							
半（斤）	ntɤ³¹		nai²²		ntei¹³							
半（筒）	kɦwɔ³³		kwaŋ³³		ntei¹³							
半夜	thõ³⁵mɦa³¹; thõ³⁵ŋ̥ŋ³⁵		thoŋ³⁵ma²²		i¹³thuŋ³⁵ma²²							
半天空	pɤ³⁵ȵo³⁵vɦɔ̃³³		ma²²ȵoŋ³⁵vaŋ³³		pu³⁵ntjuŋ³⁵waŋ³³							
单衣	ɤ³¹tɛ̃⁵⁵		ou²²tɛ⁵⁵		au¹³tai⁵⁵							
卖	mɦɪ⁴⁴		ai²²		me²²							
南	nɦɛ̃³³		naŋ³⁵		nai³³		nɒ̃¹¹	236				
南瓜	pe³¹hõ⁵⁵		tjei²²hoŋ⁵⁵		pjei¹³kwei³³							
卵	qo⁵⁵		qo⁵⁵		qo⁵⁵							
卷	tɕõ³¹		ljoŋ²²		tɕuŋ¹³							
卷叶虫	qɤ³⁵li⁵⁵mpɦjɔ³³		qai³⁵ljei³³		pau⁵⁵tɕhuŋ³⁵							
压（石头）	tɪ³⁵		ti³⁵		ŋa⁵³							
厕所	a⁴⁴pjo³¹qa³¹		a³³tjo²²qa²²		mpau³³tsi¹³							
厚	te³⁵		tei³⁵		te³⁵		te³⁵	237				
去	ȵɦɪ³³; ŋ̩³¹		ȵi³³		m̩³³				n⁴⁴	559		
去年	qa⁴⁴tɕɔ̃⁵⁵		qa²²tɕaŋ⁵⁵		qa⁵³tɕuŋ⁵⁵				qa⁴⁵tɕioŋ⁴⁵	558		
县	a⁴⁴ɕẽ³⁵		a³³ɕeŋ³⁵		ɕei⁵³							
又	jɦʉ³¹		ju²²		ju⁵³							
双（一双鞋）	ŋkɦɤ³¹		ŋou³¹		ŋkhjou³¹							
反刍	ȵtɕo³¹		ȵo²²so²²		hwei¹³so¹³							
发抖	qo⁵⁵tɕɪ̃⁵⁵		nɛ⁵³ȵoŋ⁵⁵		ɴqau³³							
发芽	pɛ⁵³khwa³¹		m̥aŋ³⁵		hwa⁵⁵							
发霉	tẽ³¹m̥po³¹		m̥o²²		ɴqo³⁵							
叔父	a⁴⁴jɦo³¹		a²²jo²²		hjo²²							
受伤	qhɛ⁵³		saŋ³³		ɕuŋ⁵⁵							
变（蛹）	pjɛ̃⁵⁵		tjɛ⁵⁵		pjei³⁵							
口											lɑŋ⁴⁴lɑ⁴⁴	642
口（咬一口）	ho³¹		ho²²		ho¹³							
口水	ɔ̃³⁵ȵtɕɦʉ³³		aŋ³⁵nju³³		aŋ³⁵ȵtɕu³³							
口袋	a⁴⁴n̥e³⁵		a³³n̥ei³⁵		naŋ³⁵n̥ɯŋ³⁵							
句（一句话）	ho³¹		hɔ²²		ho¹³							
只（一只鞋）	kɦo³¹		thei³⁵		naŋ³⁵							
只（一只鸡）	nɦɪ̃³¹; ŋ̩³¹		neŋ²²		n̩²²							
叫（牛叫）	ɴqa⁵⁵		hɛ⁵⁵		ɴqa⁵⁵							
可怜	qhɔ̃³⁵		qhaŋ³⁵njɛ³³tɕaŋ³⁵		qho¹³ljei³³							
可惜	so³¹kwa³¹		sɔ²²kwa²²		qho¹³ɕi⁵⁵							
台阶	tɦɤ³³thɤ⁵⁵qa³⁵jo³⁵		qa⁴⁴tɕa⁴⁴		thɯŋ³⁵qo¹³							
右							pu³¹kwe³¹	236				
右边	pʉ³¹kwɛ³¹		pu²²kwɛ³¹		ju⁵³pjei³⁵							
叶子	qa³¹mpɦjo³³		qa²²njaŋ³³		nuŋ³³				qai⁵²noŋ⁴⁴	558		
叼	mɔ̃⁵³		maŋ²²		hai³⁵							
吃	nɦɔ³³		naŋ³³		naŋ³³				naŋ⁴⁴	559	lɑŋ⁴⁴	642
吃肉							nɒ̃³³ŋei³³	237				
吃菜							nɒ̃³³ji¹¹	237				
吃饭							nɒ̃³³ẽ⁵³	237				
吃鱼							nɒ̃³³tjo¹¹	237				
吊（灯）	tɕɔ⁵⁵tɕɔ̃³¹		tɕɔ⁵⁵tɕaŋ²²		tɕau⁵⁵							
名字	a⁴⁴mpo⁵⁵		a³³mu⁵⁵		naŋ³⁵mjaŋ³³							
后							tə³¹po⁵³	237				
后天	tɕi⁵⁵n̥e³⁵		tɕi⁵⁵n̥ei³⁵		ti⁵⁵n̥e³⁵							
后年	tɕi⁵⁵tɕɔ̃⁵⁵		tɕi⁵⁵tɕaŋ⁵⁵		ti⁵⁵tɕuŋ⁵⁵							
后背	a⁴⁴tɦɔ̃³¹		a³³taŋ²²		naŋ³⁵khu⁵³							
后门	a⁴⁴ntɔ³¹tɕɦɔ̃³³		a³³taŋ³⁵tɕaŋ³³		qhou³¹naŋ³⁵tjuŋ³³							
后面	a⁴⁴la³¹		a³³la²²		qhou³¹wo⁵⁵							
后颈	pjɛ⁵³mpe⁵⁵		a³³ljoŋ³⁵mi⁴⁴		ti⁵⁵kwei³⁵							
吐（口水）	phjʉ⁵³		thju⁵³		nthjo⁵⁵							
向日葵	pɦɤ³³ŋɦo³³n̥e³⁵		pei³³ȵi³⁵n̥ei³⁵		pei³³n̥e³⁵							
吝啬	khɛ̃³¹		tɕɛ⁵⁵tɕaŋ³⁵		wai⁵⁵tsai⁵⁵							
吞	thẽ⁵⁵		theŋ⁵⁵		nthɯŋ⁵⁵							
吠（狗吠）	tɕɦo⁴⁴		tɕo⁴⁴		tɕo³¹							
含（糖）	pʉ³⁵		pu³⁵		mpu¹³							
听	ma⁵⁵		n̥oŋ²²		ma⁵⁵				ma⁴⁵	559		
听见	n̥õ³¹		n̥oŋ²²		ma⁵⁵							
吵架	ta³¹		ta²²		tshau¹³							
吹（吹火）	phjo³⁵		thjo³⁵		phjo³⁵							
吹（笛子）	phjõ³⁵		thjo³⁵		phjo³⁵							
吹火筒	a⁴⁴tɕɦõ³³phjo³⁵tɦɤ³¹		a³³tɕoŋ³³thjo³⁵tou²²		tjuŋ³³tou²²							
吻	ȵtɕʉ³⁵		ȵɔ⁵³		ntsau⁵³							
告诉	ho³⁵		hou³⁵		ho³⁵							
呕吐	ȵtɕo³¹		ȵo²²tei⁵⁵		ntjo¹³							
呻吟	vã⁵⁵		va⁵⁵		ŋwa⁵⁵							
命	a⁴⁴mpɦjɔ³¹		a³³njaŋ²²		mjaŋ³¹							
命运	a⁴⁴mpɦjɔ³¹		a³³njaŋ²²ȵa⁵³		naŋ³⁵mjaŋ³¹							
和	ja⁵⁵		na³³		tho³⁵							
咬	tɦa³¹		ta³¹		tha³¹							
咱们	pʉ³⁵		pu³⁵									
咳嗽	qhɔ⁵⁵		qhɔ⁵⁵		qhau⁵⁵							
咸	ntɤ³⁵ȵtɕo³¹		ȵu²²		qei³⁵							
响	mpo⁵⁵		mo⁵⁵		ɴqei³³							
哑（嗓子）	qɦɛ³¹		qɛ²²		qai¹³							
哑巴	ŋɦ³³pɪ³⁵qhɔ̃³¹kõ⁴⁴				a¹³tsi¹³							
哥							ko⁵⁵	236				
哥哥	a⁴⁴o⁵⁵; a⁴⁴ko⁵⁵		ko⁵⁵		nai³³lau²²pa⁵⁵				lao⁴⁴pa⁴⁵	558	lou²¹³pʌ⁴⁴	641
哪（哪个）	ti⁴⁴lɦɛ̃³³		ti³¹lɛ³³		ti³⁵nai³³							
哪样	ti⁴⁴hẽ⁵³; ti⁴⁴ȵ̥tɕe⁵³		ti³¹n̥ei⁵³		ti³⁵kha³¹							
哪种			ti³¹ȵoŋ³⁵		ti³⁵tɕuŋ¹³							
哪里	ti⁴⁴ȵa³⁵		ti³¹tɕa³⁵		ti³⁵tho³⁵				ti³²⁵tʰo³²⁵	560		
哭	ɴqa⁵⁵		ŋa⁵⁵		ɴqa⁵⁵				nqa⁴⁵	559		
唱									tɕʰiaŋ³²⁵	559		
唱歌	ɪ̃⁵⁵sɛ³¹		i⁵⁵sɛ²²		tɕhaŋ³⁵sai¹³							
啃（骨头）	tã³⁵		ta³¹		qou⁵⁵							
啄木鸟	qɤ³⁵tɕo³⁵pja³⁵		ka⁴⁴lei³⁵tɕɔ³⁵tai³⁵		qa³⁵le³⁵							
啼（鸡啼）	ɪ³⁵sɛ³¹		i³⁵sɛ²²		i³⁵sai¹³							
喂（鸡）	kõ³⁵		koŋ³⁵		kuŋ³⁵							
喉咙	pa⁵³hɛ³⁵lɦõ³³		tei³³he⁵³loŋ³³		tjau³⁵ɦei³⁵luŋ³³							
喉结	a⁴⁴tɕʉ⁵⁵pa³¹		tɕu⁵⁵pa³¹		tjau³⁵hei³⁵luŋ³³							
喊	ŋkɤ³⁵; ho³⁵; sɛ̃³⁵		hɛ⁵³; ŋou³⁵		ɴqou³⁵				nqou³²⁵	559		
喜欢	ŋkɦe⁴⁴		ŋɛ³⁵		ŋkjei³⁵							
喜鹊	qa³⁵tɕha⁵³		mɛ⁵³tɕha⁵³tɕha⁵³		ljaŋ³¹ɕa⁵³		ȶa⁴²ȶa⁴²	236				
喝	hɔ⁵³		hɔ⁵³		hau⁵³							
喝酒							xɔ⁵²ȶɔ³¹	237				
喷	phjo³⁵		tju³⁵		pjo³¹							
嗉子	a⁴⁴tɕʉ⁵⁵qɛ³⁵		tɕu⁵⁵qɛ³⁵		tɕu⁵⁵qai³⁵							
嗑（瓜子）	tha³¹		lɔ⁵³		naŋ³³							
嘴	a⁴⁴la⁵⁵		a³³la⁵⁵		naŋ³⁵la⁵⁵				naŋ³²⁵la⁴⁵	558		
嘴（鸟嘴）	a⁴⁴ȵtɕɦʉ³³		a³³la⁵⁵		ȵtɕu³³							
嘴巴							la⁵⁵	236				
嘶（马嘶）	ɴqa⁵⁵		hɛ⁵⁵		ɴqa⁵⁵							
噎	ȵi⁵⁵		ȵi⁵⁵		ɴqaŋ¹³							
嚼	tɕa⁵⁵		vɔ²²									
四	pi³⁵		ti³⁵		tsi⁵³		pji³³	237	tsiei³²⁵	560		
四十	pi³⁵kɦʉ³¹		ti³⁵ku³¹		tsi⁵³khu³¹							
四季豆			tu³¹l̥a⁵⁵ti³⁵		si³⁵tɕi³⁵thei³¹							
四月	l̥a⁵⁵pi³⁵		l̥a⁵⁵ti³⁵		si⁵⁵ȵei³¹							
四百	pi³⁵pe⁵⁵		ti³⁵pe⁵⁵		tsi⁵³pe⁵⁵							
四脚蛇	nẽ³⁵ȵ̥tɕɦe³¹		neŋ³⁵ȵ̥ei²²		nɯŋ³⁵he¹³							
回（头）	vɦɤ³¹		vei²²		ljei¹³							
回去									to⁴⁵m⁴⁴	559		
回家	to⁵⁵		ŋ̩²²		m̩³³							
回来	lɦo³¹		lo²²		lo²²				to⁴⁵lo²²	559		
困难	khwẽ³⁵nɛ³¹		hwei³⁵li³³		kwɯŋ³⁵nai⁵³							
围（围巾）	vɦɤ³³		vei³³		wei³³							
围墙	qɛ⁵³m̥ɛ⁵⁵pjo³¹qa³¹lɦe³³		tɕheŋ³³ka³¹lei³³		thu¹³ȵtɕaŋ³³							
围裙			tei³³teŋ³⁵		wi¹³khwɯŋ¹³							
国家	ko³¹tɕa³³		kwɛ³¹tɕa³³		kwe³⁵tɕa⁵⁵							
图章	sʉ⁴⁴tɕɔ̃³³		a³³tɕaŋ³³		si⁵⁵tɕuŋ⁵⁵							
圆	a³⁵; qɔ̃³⁵lɦɔ̃³¹		qa³³laŋ³³		lai³⁵				lai³²⁵	560		
土	qa³¹lɦe³³		qa²²lei³³		l̥ai¹³				ka²²le⁴⁴	558		
土匪	tɔ̃³⁵qɤ⁵⁵		thu²²hwei²²		nai³³fi¹³							
在									ȵoŋ³²⁵	559		
在（家）	ȵõ³⁵		ȵoŋ³⁵		ȵuŋ³⁵							
在...	ȵõ³⁵; tɕɦʉ⁴⁴		ȵoŋ³⁵		ȵuŋ³⁵							
地（天地）	a³¹to³⁵		a³³to³⁵		kuŋ³⁵le³³							
地（旱地）	tɤ³⁵fe⁵³		tei³⁵hwɛ⁵³		liŋ³³jaŋ³⁵							
地基	ko³¹pjo³¹		a³³peŋ²²tjo²²		thi⁵³tɕi⁵⁵							
地方	ȵa³⁵; sɔ⁵⁵		ȵa³³; sɔ⁵⁵		tho³⁵							
地点	ȵa³⁵; sɔ⁵⁵		ȵa³³; sɔ⁵⁵		tho³⁵							
坏									xwai⁵²	560		
坏（人）	ȵa⁵³		ȵa⁵³		hwai⁵³							
坐	ȵõ³⁵		ȵoŋ³⁵		ȵtɕo³¹				dʑio³¹²	559	dʑo²¹³	642
块（一块地）	qɛ⁵³		qɛ⁵³		qai⁵³							
块（一块石头）	qɛ⁵³		qɛ⁵³		tho³⁵							
坛子	a⁴⁴tɕɔ̃³¹		a³³tɕaŋ²²		naŋ³⁵thai³⁵tsi¹³							
坟墓	a⁴⁴qhõ³¹ȵtɕe⁵⁵		qa⁴⁴ȵei⁵⁵		naŋ³⁵ntsei⁵⁵							
坡	a⁴⁴pɦʉ³¹		a³³so⁵⁵		naŋ³⁵pu²²							
埋									po⁴⁴	559		
埋（物）	lɦa³¹		la²²		l̥a²²							
埋葬	lɦa³¹		la²²		l̥a³¹							
城市	tɕhi³¹ɕi³⁵		a³³tɕheŋ³³		ȵtɕiŋ³³si³⁵							
堆（一堆粪）	ȵ̥õ³¹		ȵ̥oŋ²²		tɯŋ⁵⁵							
堤坝	a⁴⁴vɦɤ³³ɔ̃³⁵		a³³pei³⁵aŋ³⁵		pa³⁵aŋ³⁵							
堵（水）			tɕheŋ²²		sau⁵³tɕhi¹³							
塞（洞）	sɔ⁵³		sɔ⁵³		sau⁵³							
填（土）	thẽ³³		theŋ³³		ntjei³³							
墙壁	qɛ⁵³m̥ɛ⁵⁵pjo³¹		tɕheŋ³³		ȵtɕaŋ³³							
墨	mɦɪ⁴⁴		mi⁴⁴		mpei³¹							
墨斗	a⁴⁴tɕɦõ³³mɦɪ⁴⁴		a³³thaŋ³⁵nju³³		me³⁵tei¹³							
墨水	ɔ̃³⁵mɦɪ⁴⁴		aŋ³⁵mi⁴⁴		aŋ³⁵mpei³¹							
墨线	tɦɤ³³l̥e⁵⁵mɦɪ⁴⁴		tei³³mo³¹		me³⁵tei¹³ɕei³⁵							
声音	a⁴⁴ɕo³⁵		a³³hjo³⁵koŋ⁵⁵		naŋ³⁵l̥jo³⁵							
壶	a⁴⁴hʉ³⁵		qa⁴⁴hu³⁵		naŋ³⁵piŋ³³							
夏	ɕa³⁵				ɕa⁵³							
夏天											laŋ⁴⁴ɪɑŋ²⁴	642
外公							pu⁵⁵ta¹¹	236				
外婆							pu⁵⁵tə⁴²	236				
外祖母	a⁴⁴tɤ⁵³		a²²tai⁵³		tei⁵³							
外祖父	a⁴⁴ta³⁵		a²²ta³⁵		ta³⁵							
外面	a³¹ntɔ³¹		a³³nɔ³³ȵ̥ei⁵³		qo²²tjuŋ³³wo⁵⁵							
多	tɕɔ̃³⁵		tɕaŋ³⁵		tɕuŋ³⁵				tɕoŋ³²⁵	560		
多少									qa³²⁵tɕioŋ³²⁵	561		
多少（钱）	tɪ³⁵to⁵⁵		ja²²pei⁵³		qa³⁵tɕuŋ³⁵							
夜（一夜）	mɦa³¹		ma³¹		ma²²							
夜星									qa³¹ma²²vaŋ⁴⁴	558		
夜里（晚上）	qa³¹mɦa³¹; qa³¹ŋ̥ŋ³⁵		qa²²ma²²		qa³¹ma²²							
大	l̥jo³⁵; pɦɛ̃⁴⁴		l̥jo³⁵; pɛ⁴⁴		l̥jo³⁵		ljho¹¹	236	tlʰio³²⁵	559		
大前天	tɕɦo³¹ŋ̩⁵⁵n̥e³⁵		tɕo²²ŋ̩²²n̥ei³⁵		tso²²wo⁵⁵n̥e³⁵							
大前年	tɕɦo³¹ŋ̩⁵⁵tɕɔ̃⁵⁵		tɕo²²ŋ̩²²tɕaŋ⁵⁵		tso²²wo⁵⁵tɕuŋ⁵⁵							
大后天	ŋkɦɛ³¹tɕi⁵⁵n̥e³⁵		ŋɛ²²tɕi⁵⁵n̥ei³⁵		wei⁵³ti⁵⁵n̥e³⁵							
大后年	ŋkɦɛ³¹tɕi⁵⁵tɕɔ̃⁵⁵		ŋɛ²²tɕi⁵⁵tɕaŋ⁵⁵		wei⁵³ti⁵⁵tɕuŋ⁵⁵							
大家	ɪ̃⁵⁵tɔ⁵⁵		pu³⁵ta³¹		ta³¹ju³⁵							
大禾											ȵien⁴⁴bei²¹³	642
大肠	pɦɛ⁴⁴ŋ̥ŋ³¹		pɛ⁴⁴ŋ̥ŋ²²		qou²²n̥n¹³							
大脖子	a⁴⁴tɕʉ⁵⁵		a³³tɕu⁵⁵		naŋ³⁵tɕu⁵⁵							
大腿	a⁴⁴vo⁵⁵pẽ³⁵		tai³³pei³⁵		tei³³pe³⁵							
大葱	sõ⁵⁵		tjei²²soŋ⁵⁵		tshuŋ⁵⁵							
大蒜	sɛ̃⁵⁵		tjei²²sɛ⁵⁵		i³⁵sai⁵⁵							
大路	pɦɛ̃⁴⁴qo³¹		pɛ⁴⁴qo²²		qu²²qo¹³							
天							ã³³ŋwa³³	235	naŋ³²⁵waŋ⁴⁴	557		
天（一天）	n̥e³⁵		n̥ei³⁵		n̥e³⁵							
天（天地）	a⁴⁴vɦɔ̃³³		a³³vaŋ³³		naŋ³⁵waŋ³³							
天亮	mpɦɪ⁴⁴		a³⁵		mpjei³¹							
天花	qa³⁵tɦʉ³¹l̥ʉ⁵⁵		qa⁴⁴tu³¹vaŋ³³		qa³⁵thu³¹qei⁵⁵							
天鹅	ɴqɦo³³vɦɔ̃³³		ŋo³³vaŋ³³		qa³⁵wau³³							
太阳	a⁴⁴ɔ̃³⁵n̥e³⁵; qa³¹ha³⁵		a³³l̥a⁵⁵qa²²n̥ei³⁵		naŋ³⁵n̥e³⁵		ã³³ne³⁵	235	naŋ³²⁵ntle³²⁵	557		
失败	ɕi³¹pɛ³⁵		kwi⁴⁴kwa³¹		ɕi⁵⁵phai⁵³							
头	a⁴⁴tɕʉ⁵⁵pi³¹		a³³toŋ³³ti²²		naŋ³⁵tsi¹³		pji⁵⁵pji³¹	236	naŋ³²⁵tsiei²¹²	558		
头发	pi³⁵		ti³⁵		pi³⁵						pi⁴⁴tsɑ⁴⁴	641
头巾	qa³¹sɔ⁵³		qa²²so⁵³		qai⁵³ɕau⁵³							
头旋	vɦɤ³¹pi³¹		a³³vɛ²²ti²²		naŋ³⁵ɕei⁵³							
头晕	vɦɤ⁴⁴mɦɪ⁴⁴		jeŋ³³ti²²		iŋ³¹tsi¹³							
头盖骨	qa³¹qhɔ³⁵pi³¹		qhɔ³³lɔ³³		kho⁵⁵suŋ¹³							
头虱	ŋ̩³¹ȵ̥tɕɪ³¹		ȵ̥i²²		ȵtɕhi¹³							
头顶	a⁴⁴tɦõ³³pi³¹		a³³toŋ³³ti²²		tuŋ³³tsi¹³							
夹（菜）	nɦɛ̃⁴⁴		nɛ⁴⁴		tai⁵³							
夹子（捕兽)	pa³¹ŋkɛ⁵³		pa²²ŋɛ⁵³		tei³³ɴqai⁵³							
夹衣	ɤ³¹va³⁵la³¹		ou²²phaŋ⁵⁵tɛ⁵⁵		tɕa³⁵tai⁵⁵i⁵⁵							
夺	lɦɔ³¹		lɔ³¹		l̥au³¹							
套索	a⁴⁴sʉ³¹l̥e⁵⁵		lja⁵⁵su²²		tei³³kwaŋ³³							
女							kə³¹pjhe⁴⁵³	236				
女人	qo³¹mɛ̃⁵³		qo²²thei⁵³njɛ³³		qa⁵⁵phjei⁵³nai³³				qa⁴⁴pʰei⁵²nai⁴⁴	558		
女儿	ta³⁵qa³¹phe⁵³		a²²thei⁵³		nai³³phjei⁵³				nai⁴⁴pʰie⁵²	559	lɛ⁴⁴phie²¹³	641
女婿	a⁴⁴vi³¹		a²²vi²²		nai³³wi¹³							
奶（奶汁）	ɔ̃³⁵me³⁵; a⁴⁴pɛ̃³⁵		aŋ³⁵mei³⁵		aŋ³⁵ne³⁵							
好									iaŋ⁴⁵	560		
好（人）	ntɦɛ⁴⁴		nɛ⁴⁴		jaŋ⁵⁵							
好（味道好）	ntɦɛ⁴⁴; jɔ̃⁵⁵		nɛ⁴⁴		jaŋ⁵⁵							
好（看）	jɔ̃⁵⁵		ja⁵⁵		jaŋ⁵⁵							
妯娌	a⁴⁴kɦo³³a⁴⁴ȵtɕe³¹		va⁵³ku³³ȵei²²		kho⁵⁵ko³³ȵtɕhei²²							
妹妹	a³¹vɛ³⁵phe⁵³		mu⁵⁵le³³tɕa²²		nai³³ko³³thje⁵³		pu⁵⁵kwe¹¹	236	taŋ⁴⁵qwei²¹²	558	lɛ⁴⁴tɕioŋ²¹³	641
妻兄											lɛ⁴⁴thɑŋ²¹³	641
妻子	a⁴⁴vo³¹		a²²vo²²		nai³³wo¹³				nai⁴⁴wo²¹³	559	lɛ⁴⁴o⁴⁴	641
姐姐	a⁴⁴tɕa³¹		a²²tɕa²²		nai³³kwei¹³		pu⁵⁵ȶə⁵¹	236	nai⁴⁴tɕia³²⁵	558	lɛ⁴⁴ku⁴⁴tie⁴⁴	641
姑母	a⁴⁴tɕa³¹		a²²tɕa²²		ku⁵⁵ȵuŋ³³		ŋə̃³³	236				
姑父	a⁴⁴mpɪ³¹		a²²mi²²		ku⁵⁵ja²²		mi¹¹	236				
姨母	a⁴⁴kɦo³³tɕhe⁵³		a²²ȵei²²		ko³³thje⁵³							
姨父	a⁴⁴ȵtɕɪ³¹tɕhe⁵³		a²²ȵei²²tɕhi⁵³		hjo²²thje⁵³							
娶	ja³¹		ai²²		tɕou⁵³							
娶媳妇											khoŋ⁴⁴nin²⁴	642
婴儿	vɛ³⁵tɦɤ⁴⁴		taŋ³⁵qɔ²l̥a⁵⁵		taŋ³⁵ȵei³⁵							
婴臀斑（胎记)	qa³¹kwi⁵⁵		mei³⁵		mpjo³⁵							
婶母	a⁴⁴ȵtɕe³¹		a²²ȵei²²		ȵtɕhei²²							
嫁	ŋ̩ɦ³¹		paŋ³⁵		ɴqa⁵⁵							
嫁女											ŋɑ⁴⁴phie²⁴	642
嫂嫂	a⁴⁴mɦa³³		a²²ma³³		ko³³							
嫌	vɪ³¹		ȵ̥ɛ⁵⁵		hei³⁵							
嫩（菜）	ȵõ⁵⁵		ȵoŋ⁵⁵		ma²²							
子弹	mɦa³¹tɕɦi³¹		ma²²		tsi¹³ntai³³							
孙女	a⁴⁴phe⁵³sẽ³¹		thjei⁵³		phjei⁵³sɯŋ¹³							
孙子	a⁴⁴tɔ̃³⁵sẽ³¹		taŋ³⁵seŋ²²		nai³³sɯŋ¹³						lɛ⁴⁴sin²¹³	641
学	ɕo³¹		ɕo³¹		ɕo³⁵							
学校	ɕɔ³¹ɕɔ³⁵		ɕo³¹ɕɔ³⁵		ɕo³¹ɕou³⁵							
学生	ɕɔ³²sẽ³³		ȵi³³i⁵⁵nɔ³¹		ɕo³⁵sɯŋ⁵⁵							
孵（小鸡）	pɦo⁴⁴		po⁴⁴		po³¹							
完（结）	ljo³¹		ljo²²		jaŋ²²							
官	kwɛ̃³⁵		kwɛ³⁵		kwai³⁵							
客人	a⁴⁴lɦẽ³¹		pa²²leŋ²²		nai³³lɯŋ²²							
害怕	ȵ̥tɕɛ⁵⁵		ȵ̥ɛ⁵⁵		he¹³							
害羞	tɕɦɪ³³mɦjɛ³³		tɕei³³njɛ³³		he¹³tsei³³							
家畜	hɤ³⁵qɤ³⁵pjo³¹		jaŋ²²saŋ⁵⁵		juŋ²²saŋ⁵⁵							
容易	jɦõ³³jɦi³¹		joŋ³³ji³¹		i⁵³tu⁵⁵							
宽	kwɤ³¹		kwei²²		kwei¹³							
密	mpɦa³¹		ma³¹		nte³⁵							
富	jɔ̃⁵⁵		jaŋ⁵⁵		tɕu¹³							
寡妇	jɦʉ³¹ȵe⁵³mɦjɛ³³		qo²²mɛ⁵³soŋ⁵³		tai⁵⁵ɕiŋ¹³mpo³³							
寸	tɕhi⁵⁵		theŋ⁵³		ntshuŋ³⁵							
对（一对耳环）	kɤ⁵⁵		kou⁵⁵		ŋkhjou³¹							
封（一封信）	hõ⁵⁵		hoŋ⁵⁵		huŋ⁵⁵							
小	jʉ⁵⁵; tɔ̃³⁵; ŋɪ⁵⁵		ju⁵⁵		ju⁵⁵		yu⁵⁵	236	iou⁴⁵	560		
小指	tɦɤ³³tɔ̃³⁵va³¹		taŋ³⁵va³¹		mai³³ɕu¹³tsei³⁵							
小沙江（地名）									sai⁴⁵koŋ⁴⁵	561		
小米	ȵtɕʉ⁵⁵mɔ⁵⁵		e⁵³maŋ⁵⁵									
小肠	tɔ̃³⁵ŋ̥ŋ³¹		taŋ³⁵ŋ̥ŋ²²		taŋ³⁵n̥n¹³							
小腿	a⁴⁴vo⁵⁵pẽ³⁵lʉ³⁵		a³³tjaŋ⁵³lu³⁵		tei³³haŋ³⁵							
小舌	tɔ̃³⁵mpɦɪ³¹		taŋ³⁵njei³¹		taŋ³⁵nthei³¹							
小路	tɔ̃³⁵qo³¹		taŋ³⁵qo²²		taŋ³⁵qo¹³							
小鸡	tɔ̃³⁵qɛ³⁵		taŋ³⁵qɛ³⁵		taŋ³⁵ȵei³⁵qai³⁵							
小麦	ɪ̃⁵³mje⁵³		e⁵³qa²²mɔ³⁵						xou³²⁵m³¹	558		
少	tɕɦɤ⁴⁴		tɕou⁴⁴		tɕou³¹				tɕiou³¹	560		
尖	ȵtɕo⁵⁵		ŋeŋ³⁵		tɕei⁵⁵							
尘土	qa³¹m̥po³¹		qa²²mu²²		hwei⁵⁵ȵtɕiŋ³³							
尝	si⁵⁵		si⁵⁵		si⁵⁵							
就	tɦɔ³³; ɕʉ⁵³; ɕo³⁵		su²²		ɕu⁵³							
尸体	mɦjɛ³³tɦe⁴⁴		a³³njɛ³³tei⁴⁴		si⁵⁵ɕiŋ³⁵							
尺	thi⁵⁵		thei⁵⁵		thi⁵⁵							
尺子	thi⁵⁵		tei³³thi⁵⁵		tei³³thi⁵⁵							
尾巴	tɦɤ³³tɤ³¹		tai³³tai²²		tei³³tei¹³							
尿	ɔ̃³⁵vɦe³¹		aŋ³⁵vei²²		aŋ³⁵ŋkwe²²							
屁	tɔ̃⁵⁵qa³¹		tou⁵⁵qa²²		tuŋ⁵⁵qa¹³							
屁股	a⁴⁴qhõ³¹qa³¹		pɔ³⁵qa²²		qhuŋ¹³qa¹³							
层（一层楼）	tɦẽ³¹		thi³⁵		ntɯŋ³³							
居住	ȵõ³⁵		ȵoŋ³⁵		ȵuŋ³⁵							
屎	qa³¹		qa²²		qa¹³							
山	a⁴⁴jɔ̃³¹		tei³³kɛ⁵⁵		juŋ¹³		ma³¹je³³	236	naŋ³²⁵ioŋ²¹²	558		
山地	tɤ³⁵jɔ̃³¹		tei³⁵jaŋ²²		tei³⁵qhe³¹							
山坡	a⁴⁴pɦʉ³¹		qa²²jaŋ²²		naŋ³⁵pu²²							
山羊	tɕɛ̃⁵⁵tɕʉ⁵⁵		qa²²tu⁵⁵		juŋ³³							
山脚	qɤ³⁵jɦe³³		a⁵⁵qai³⁵		naŋ³⁵qei³⁵tsa³¹							
山腰	pɤ³⁵ȵõ³⁵jɦe³³		ma²²ȵoŋ³⁵jei³³		naŋ³⁵juŋ¹³							
山谷	tɦɤ³³ɦɔ²²		tei³³jei³³ka⁵⁵hoŋ²²		tei³³qhou⁵⁵							
山顶	a⁴⁴pɦi³¹jɦe³³		a³³ti²²kɛ⁵⁵		tsou⁵³kjei⁵⁵							
岁	tɕɔ̃⁵⁵		tɕaŋ⁵⁵		tɕuŋ⁵⁵							
岁（一岁）	tɕɔ̃⁵⁵		tɕaŋ⁵⁵		tɕuŋ⁵⁵							
岳母	tɤ⁵³		a²²tei⁵³		nai³³tei⁵³						lɛ⁴⁴thɑŋ²¹³	641
岳父	ta³⁵		a²²ta³⁵		nai³³ta³⁵						pin⁴⁴sin²¹³	641
岸	a⁴⁴pjɛ̃⁵⁵ɔ̃³⁵		a³³jaŋ³³a³⁵		wjaŋ³¹							
崖（石崖）	a⁴⁴tɕhɛ̃⁵³		qa²²ti⁵⁵		naŋ³⁵pje⁵⁵							
工人	kõ³³ĩ³¹		hou³⁵njɛ³³		kuŋ⁵⁵iŋ³³							
工资	tɕɦĩ³³ne³⁵qɔ̃³⁵		neŋ³⁵kaŋ³⁵		nɯŋ³⁵tɕiŋ³³							
左							pu³¹ta³¹	236				
左边	pʉ³¹qhɔ̃³¹		pu²²khaŋ²²		tso¹³pjei³⁵							
巴蕉	pa³³tɕɔ³³		qa⁴⁴tɕɔ³⁵									
布	ntɪ³⁵		ni³⁵		nti³⁵				qai⁵²di³²⁵	559		
布谷鸟			taŋ³⁵moŋ⁴⁴kɔ⁵³ku³³		qou⁵³qu²²							
布鞋	hɛ³⁵ntɪ³⁵		hɛ³⁵ka²²sɔ⁵³		hai³⁵							
帕子							ke³¹ɕo⁵³	237				
席子	sa³⁵tẽ⁵⁵so³¹		sa³⁵qa⁵⁵ŋɛ³⁵									
帮助	pɔ̃⁵⁵		paŋ³⁵		puŋ⁵⁵							
常常									xei⁵²	561		
帽子	a⁴⁴mpɔ³¹		a³³mɔ²²		naŋ³⁵mphau¹³						lɑŋ⁴⁴pɑu²¹³	642
干（衣服）	qhe³¹		qhei²²		qhe¹³							
干净	kwa⁵⁵sẽ³¹		seŋ²²		kei⁵⁵tshɯŋ⁵³							
干枯	qhe³¹; qhe³¹qẽ⁵⁵		qhei²²		qhe¹³							
平	pɦẽ³³		peŋ³³		pɯŋ³¹							
平坝	pɦẽ³³		peŋ³³		pɯŋ³¹							
年	tɕɔ̃⁵⁵		tɕaŋ⁵⁵		tɕuŋ⁵⁵				tɕioŋ⁴⁵	558		
年轻	ȵõ⁵⁵		ȵoŋ⁵⁵		ȵuŋ⁵⁵							
床	tɦɤ³³tɕɦõ³³		tai³³tɕoŋ³³		tei³³tsuŋ³³						tsoŋ⁴⁴	642
庙	a⁴⁴mpɦjɤ³¹		a³³njou²²		mphjo¹³							
庹	phɛ³¹		phɛ²²		kwei³³				kwɛi⁴⁴	560		
廊檐	a⁴⁴qɤ³⁵fõ⁵⁵pjo³¹		qɔŋ³⁵va²²		jei³³pjo¹³							
开（门）	po⁵³		po⁵³		pau⁵³							
开会	khɛ³³fɤ³⁵		i⁵⁵khwɛ³³		khjei⁵⁵hwei⁵³							
开始	khɛ³³ɕi⁵³		taŋ⁵⁵qai³⁵		tɕa³⁵si³⁵							
开水	ɔ̃³⁵mpɪ⁵⁵		aŋ³⁵mi⁵⁵		aŋ³⁵mpi⁵⁵							
弓	qa³¹n̥e³¹		tei³³n̥i²²		pa¹³n̥e¹³							
弟弟	a³¹vɛ³⁵tɔ̃³⁵		a²²vɛ³⁵		nai³³n̥uŋ²²		pu⁵⁵tə³¹	236	lao⁴⁴tʰei⁵²	558	lou²¹³the⁴⁴	641
张（一张纸）	qɛ⁵³		qɛ⁵³		qai⁵³							
弩	qa³¹n̥e³¹		tei³³n̥i²²		pa¹³n̥e¹³							
弯	ɴqɔ³⁵		ŋɔ³⁵		wai⁵⁵				liei³¹	560		
弱	khwa³³		mi⁴⁴soŋ²²		lau³⁵							
影子	a⁴⁴lɦa⁴⁴lɦi³¹		lja⁴⁴lei²²		ljaŋ³¹ljei²²							
很	hẽ⁵³; ŋ̩³⁵		thoŋ⁵⁵		mai²²kwa¹³							
得	tʉ⁵⁵		tu⁵⁵		tu⁵⁵							
心口（胸口窝)	a⁴⁴tho⁵⁵tɕɔ̃⁵³		a³³tɕaŋ⁵³		qhuŋ¹³tɕuŋ⁵³							
心脏	a⁴⁴tɕɔ̃⁵³		a³³noŋ³⁵		naŋ³⁵tɕuŋ⁵³							
忘记	ɪ̃⁵⁵nõ³¹		i⁵⁵noŋ²²		nuŋ¹³							
忙	mɦɔ³³		maŋ³³		tɕi³⁵							
快	tɕɪ⁵³		tɕi⁵³		tje⁵³				tie⁵²	560		
快（刀）	ȵtɕo⁵⁵		ȵo⁵⁵		ȵtɕo⁵⁵							
快快	tɕɪ⁵³tɕɪ⁵³		tɕi⁵³tɕi³⁵		tje⁵³tje⁵³							
怎样	ɪ̃⁵⁵thẽ³¹		ti³¹n̥ei⁵³		tsɯŋ¹³juŋ⁵³							
恐怕	hẽ⁵⁵		khɔ⁵³ȵ̥ɛ⁵⁵		khuŋ¹³pha³⁵							
恨	hẽ³¹		heŋ²²		n̩¹³							
悄悄地	qa³⁵tɕha⁵⁵		ta²²ɛ⁵³		tɕhaŋ⁵⁵tɕhaŋ⁵⁵							
悬崖峭壁	a⁴⁴tɕhɛ̃⁵³		qa²²ti⁵⁵		naŋ³⁵pje⁵⁵							
想	sɔ̃³¹		saŋ²²		ɕaŋ¹³							
愚蠢									qʰaŋ³¹	560		
愿意	ŋkɦe⁴⁴		ŋɛ³⁵		wi⁵³i³⁵							
慢	lɦe³³		lei³³		le³³				le⁴⁴	560		
慢慢	jɤ⁵⁵jɤ⁵⁵		jou⁵⁵jou³⁵		jo⁵³jo⁵³							
懂	pɪ³⁵		ȵa⁵⁵		pi³⁵to¹³							
懒惰	ŋɦɛ³¹		ŋɛ²²		l̥ai³¹							
我	vɦɔ̃³¹		vaŋ²²		waŋ²²		wa¹¹	236	vaŋ²²	560		
我们	pʉ³⁵		pu³⁵		waŋ²²kaŋ¹³				vaŋ²²kaŋ³³	560		
我俩	vɦɔ̃³¹va⁵³		pu³⁵va⁵³lɛ³³		waŋ²²wa⁵³nai³³							
我的	vɦɔ̃³¹ŋ̩³¹		vaŋ²²ȵaŋ²²		waŋ²²nuŋ¹³							
戒指	a⁴⁴lɦjɤ³³va³¹		qa⁴⁴ljou³³va²²		ljei³¹ŋkwa³⁵							
戴（帽）	nɔ̃⁵⁵		naŋ⁵⁵		ntuŋ⁵⁵							
户	pjo³¹		tjo²²		ku⁵⁵ɕi¹³							
房子											lɑŋ⁴⁴py²⁴	642
房屋	a⁴⁴pjo³¹		qa⁴⁴tjo²²		naŋ³⁵pjo¹³				naŋ³²⁵pio²¹²	559		
房梁	tɦɤ³³kɔ̃⁵⁵lɦjɔ̃³³		ljaŋ³³tjo²²		ljuŋ³³pjo¹³							
房脊	tɦɤ³³jɦɪ³³tõ⁵⁵		tei³³jei³³va²²		tɕa⁵⁵pjo¹³							
房间	kɛ̃⁵⁵pjo³¹		a³³tɕo⁵⁵		naŋ³⁵tso⁵⁵							
房顶	a⁴⁴pjɛ̃⁵⁵sa⁵³		a³³pei²²haŋ²²		pho⁵⁵pjo¹³							
扁	mpe³¹		mei²²		pjei¹³							
扁担	tɦɤ³³pja³¹tã⁵⁵		tei³³pa²²taŋ⁵⁵		pjei¹³ta⁵⁵							
扇子	a⁴⁴mpi³¹		qɛ⁵³ni³¹loŋ³³		pa¹³mphjei³¹							
手	tɦɤ³³pɦʉ³¹		qa⁴⁴pu²²		pu²²		pu³³	236	tei⁴⁴pu²²	558		
手套	va³⁵pɦʉ³¹		va³⁵pu²²		ɕu¹³luŋ³³							
手心	a⁴⁴qõ³⁵mpa³⁵pɦʉ³¹		a³³tɕaŋ²²ma³⁵pu²²		sɯŋ⁵⁵pu²²							
手指	tɦɤ³³va³¹		qa⁴⁴taŋ³⁵va³¹		nei³⁵ŋkwa¹³						lɑŋ⁴⁴guɑ²¹³	642
手掌	a⁴⁴mpa³⁵pɦʉ³¹		a³³ma³⁵pu²²		tɕuŋ¹³pu²²						lɑŋ⁴⁴bɛ²¹³	642
手掌纹	qa³⁵hɔ³³pɦʉ³¹		qa⁴⁴hɔ³³pu²²		qhaŋ⁵⁵pu²²							
手背	a⁴⁴so³⁵mpa³⁵pɦʉ³¹		a³³phɔ⁵⁵ma³⁵pu²²		khu³¹pu²²							
手腕			a³³ŋoŋ²²sai³⁵		ho³⁵kwei⁵⁵							
手臂											lɑŋ⁴⁴kɛ⁴⁴	642
手镯	a⁴⁴pɦo⁴⁴		a³³pou⁴⁴		pu²²ɕei³⁵							
才	qɦɤ³³		qɛ³³		qa³⁵							
扎（针）	tɕhɛ⁵³		tɕhɛ⁵³		n̥a⁵⁵							
扑（虎扑）	ȵɦɔ³³		tɕhu⁵⁵		thau³¹							
扒火棍	pja³¹ȵ̥tɕa³⁵tɦɤ³¹		tja²²va⁴⁴tou²²		pja¹³pja³³tou²²							
打									hou⁵²	559		
打（用棍子)	mpɔ⁵³		mɔ⁵³		mpou⁵³							
打（铁）	nõ⁵⁵		noŋ⁵⁵		mpou⁵³							
打（雷）	tɦɤ³³		tou³³		tou³³							
打吨儿	vɦɤ⁴⁴vɔ̃³⁵		ŋou²²vaŋ³⁵		tsha³¹							
打哈欠	ȵ̥tɕi⁵⁵la⁵⁵		ŋɛ²²		ntjei⁵⁵							
打架	ta³¹mpɔ⁵³		ta²²mɔ⁵³		ta³¹mpou⁵³						dʌ²¹³bu²⁴	642
打火石	a⁴⁴jo³⁵kwɔ³⁵		qa⁴⁴ju³⁵kɔ³⁵		jo³⁵kwau³⁵							
打火镰	mpɔ⁵³ho³¹lɦjɛ̃³³		a³³ho²²ljɛ³³		ho¹³ljei³³							
打猎	jɦʉ³¹ɴqɦɛ³³		poŋ²²ka³¹tu⁵³		kei³⁵							
打闪	jẽ³¹mpo³⁵		jɛ⁵³mo³⁵		tou²²mpo³⁵							
打鼾	thʉ³⁵qɦɔ̃³¹		thjo³⁵kaŋ²²		thu³³qha³¹							
扔	ljɤ⁵³		pɛ³³		mai³⁵							
扛	ɴqɤ⁵⁵		ŋai⁵⁵		ɴqei⁵⁵							
扫（地）	ko³¹		ko²²		ko¹³							
扫帚	a⁴⁴tɕo³⁵		a³³tɕo³⁵		naŋ³⁵tjo³⁵							
扭（着腰）	le³¹		ljei²²		ljei¹³							
扶	ȵtɕɦo⁴⁴		ȵo⁴⁴		fu³⁵							
承认	lɦĩ³¹		leŋ²²		ȵtɕiŋ³³iŋ³⁵							
把（一把刀）	pa³¹		pa³¹		pa¹³							
把（一把菜）	kha⁵⁵		kha⁵⁵		kha¹³							
把...	ɤ³¹		ai²²		qei¹³							
抖	ȵ̥tɕa⁵³		ȵ̥a⁵³		tɕa⁵⁵							
折叠	tɕõ³¹		tɕoŋ²²		tɕuŋ¹³							
抢劫	tɕẽ⁵⁵		tɕheŋ⁵⁵		l̥au³¹							
报仇	pɔ³⁵sɤ⁵³		pɔ³⁵tɕhu³⁵		pau³⁵ȵtɕu³³							
抬	tɕõ³⁵		tɕoŋ³⁵		thai³⁵				tʰai³²⁵	559		
抬（头）	tɦɔ̃³³		taŋ³³		mpai¹³							
抱（小孩）	pɦjɛ⁴⁴		tjɛ⁴⁴		phau³¹							
抹（灰）	sɤ⁵³		lou⁵⁵		huŋ¹³							
抽屉	qõ³⁵thɔ³⁵		a³³saŋ⁵⁵tei³⁵									
抽筋	lja⁵⁵mpɤ³⁵		ku⁵³		lja⁵⁵tɕi⁵⁵							
拃	kɦa³³		ka³³		ka³³							
担子	tã⁵⁵		taŋ⁵⁵		ta⁵⁵							
拇指	mɛ̃⁵³va³¹		mɛ⁵³va³¹		pa⁵³ŋkwa¹³							
拉（屎）	ŋ̩⁵³		ŋ̩⁵³		n̩⁵³							
拉肚子	pjɤ³⁵qa³¹		tjou³⁵qa²²		mpi⁵⁵n̥n¹³							
拍（桌子）	tɛ³⁵		pɛ³⁵		mpou⁵³							
拔（草）	lja⁵⁵		lja⁵⁵		tuŋ³³							
招（手）	fa⁵³		va³³		wa³³							
拜（佛）	khwɤ³¹		khwei²²		suŋ⁵⁵ja³¹							
拥挤	le⁵³		nei⁵³		ti¹³							
拧（毛巾）	pja⁵⁵		ljei²²		pja⁵³							
拳头	a⁴⁴tɕɔ³⁵pɦʉ³¹		qa⁴⁴pu²²qɔ³¹		pu²²qo¹³							
拴（马）	tɦɔ³³		tɕhɛ³³		ȵtɕei³³							
拿									qei²¹²	559		
拿（书）	ɤ³¹		ai²²		qei¹³							
拿去	ɤ³¹ȵɦɪ³³		ai²²ȵi³³		qei¹³m̩³³							
拿来	ɤ³¹tɦe³³		ai²²tei³³		qei¹³te³³							
挂	kɦwɛ⁴⁴		kwaŋ³⁵		kwai³¹							
指甲	qa³¹vi⁵⁵		qa²²vi⁵⁵pu²²		qhau³⁵ŋkwi⁵⁵							
指纹	a⁴⁴pe³¹va³¹		qa⁴⁴vɛ³¹pu²²		naŋ³⁵lo³³							
挑（担子）	ɴqɤ⁵⁵		ŋai⁵⁵		ɴqei⁵⁵							
挑柴											ŋɛn⁴⁴tsɑ²⁴	642
挑选	vɪ³¹		ljei⁴⁴		ŋkwi²²							
挖	khɔ³⁵		khɔ³⁵		n̥e³⁵							
挖土											kuei²¹³tei⁵³	642
捆（一捆草）	fɔ̃⁵⁵		hwaŋ⁵⁵		thei³⁵							
捆（柴）	tɦɔ³³		tɔ³³		thau³⁵							
捉（鸡）	ɴqo³¹		ŋou²²		ɴqo²²							
捞	jɦɤ³¹		lɔ³³		lau³³							
捧	ŋkɤ⁵³		mo⁴⁴		mpo³¹							
捧（一捧米）	ŋkɤ⁵⁵		mo⁴⁴		mpo³¹							
捻（指头）	me⁵³		n̥ei³⁵		tshɯŋ¹³							
掉（下来）	nto⁵⁵; pɦɛ̃³³		no⁵⁵		nto⁵⁵							
掐（虱子）	la⁵⁵; tɕi⁵⁵		na⁵⁵		li⁵⁵							
推	tɕhʉ⁵⁵		tɕhu⁵⁵		nthe⁵⁵							
掷	ljɤ⁵³		pɛ³³		mai³⁵							
揉（丸子）	lʉ⁵⁵		lu⁵⁵		no³³							
插（秧）	ȵtɕɤ⁵³		ȵou⁵³		tuŋ²²							
插（红旗）	ȵ̥tɕɛ⁵³		tɕhɛ⁵³		tsha³¹							
握（刀把）	pa³⁵		kha³⁵		u³⁵							
握手	pa³⁵		kha³⁵		u³⁵							
揭（盖子）	pɔ⁵³		pɔ⁵³		pau⁵³							
搀	ȵtɕɦɤ³¹		ȵou²²		tsa³⁵							
搅（拌）	khɔ³³		khɔ³³		ntsou²²							
搓（绳子）	mpa³⁵		ma³⁵		mpa³⁵							
搔（痒）	khwa⁵³		khwa³¹		kwai⁵³							
搬（椅子）	phɛ̃³⁵		phɛ³⁵		pai⁵⁵							
摆（手）	lɦɪ³¹		vei⁴⁴		mpje³³							
摇（头）	lɦɪ³¹		ljei³¹		l̥jei³¹							
摘（猪菜）	mpɛ⁵³		ȵi⁴⁴		nthi³¹							
摘（菜）	mpɛ⁵³		mɛ⁵³		nthi³¹							
摸（索）	pɦja⁴⁴		tja²²		mpa²²							
撑（伞）	ȵ̥tɕe⁵⁵		ȵ̥ei⁵⁵		pau⁵³							
撑（船）	tɦe³¹		saŋ⁴⁴		qhe³¹							
撒（米）	pɦjo⁴⁴		tjo⁴⁴		puŋ³¹							
撒娇	ɪ̃⁵⁵vɛ³⁵		tɕaŋ²²		je⁵⁵ȵuŋ⁵⁵							
撕（纸）	pe⁵³		tjei⁵³		pjei⁵³							
撬	qɦɤ³¹		lɛ²²		qhe³¹							
擤	n̥a⁵⁵		n̥a⁵⁵		phiŋ⁵⁵							
擦（桌子）	sɤ⁵³		sou⁵³		tsha⁵⁵							
收	sɤ³⁵		sou³⁵		ɕou³⁵							
放									kʰa³¹	559		
放牧	tɕõ⁵⁵		jo³¹		tɕuŋ⁵⁵							
放置	kha³¹		kha³¹		kha³¹							
救（人）	vo⁵⁵; pɛ̃⁵⁵jɔ⁵⁵		vo⁵⁵		tɕu³⁵							
教（书）	ŋke³⁵		ŋ̩³⁵		ho³⁵							
敢	kɛ³¹		qɛ²²		kai¹³							
散开（麦捆）	q ɛ³¹		qɛ²²		ntha⁵⁵							
数									xio²¹²	559		
数（东西）	ho³¹		hjo²²		hjo¹³							
整齐	thõ³³		tu⁵⁵thoŋ³³		tɕiŋ¹³							
文字	ntɔ³¹		nɔ²²		si⁵³							
斑鸠	qa³¹ɴqo³⁵		qa²²ŋo³⁵		n̩³³ɴqo³⁵							
斗			tai²²		tei¹³							
斗笠	a⁴⁴kʉ⁵³		a³³ku⁵³									
斜	tɦɛ̃³¹		tɛ²²		khuŋ³¹							
斟（酒）	mpi³⁵		ni³⁵		mpi³⁵							
斤	kõ³⁵		koŋ³⁵		kuŋ³⁵				koŋ³²⁵	560		
斧							ta³¹tji⁵⁵	237				
斧头	pa³¹tɪ⁵⁵		pa²²tei⁵⁵		tei³³ti⁵⁵							
断（扁担断）	lɦjo³¹		taŋ⁵⁵		taŋ⁵⁵							
断（绳子断）	tɔ̃⁵⁵		taŋ⁵⁵		taŋ⁵⁵							
新（衣服）	sẽ³⁵		seŋ³⁵		ɕiŋ³⁵							
新地	tɤ³⁵sẽ³⁵		tei³⁵seŋ³⁵		tei³⁵ɕiŋ³⁵							
新鲜	sẽ³⁵jɦi³¹		nei³⁵		ɕiŋ⁵⁵ɕiŋ⁵³							
方	ɕɔ̃⁵⁵		hjaŋ⁵⁵		huŋ⁵⁵				xoŋ⁴⁵	560		
旁边	a⁴⁴pjɛ⁵⁵		a³³jaŋ³³									
旋转	ntɔ³¹		ljoŋ²²		ȵtɕei³¹							
旗	tɕhi³⁵		tɕhi³⁵		ȵtɕi³³							
旧（衣服）	qo⁵⁵		qo⁵⁵		qo⁵⁵							
旧地	tɤ³⁵qo⁵⁵		tei³⁵qo⁵⁵		tei³⁵kau¹³							
早（起）	ȵtɕo³¹		ȵo²²		ntso¹³							
早晨	lɔ̃³⁵ȵtɕo³¹; qa³¹te⁵⁵		qa²²tei⁵⁵		naŋ³⁵ntso¹³						ŋɛn⁴⁴tu⁴⁴	642
早饭	ɪ̃⁵³qa³¹te⁵⁵		e⁵³qa²²tei⁵⁵		tsau¹³hwai⁵³							
明天	pɤ³⁵n̥e³⁵		po³⁵n̥ei³⁵		po³⁵n̥e³⁵						pu⁴⁴te⁴⁴	642
明年	pɤ³⁵tɕɔ̃⁵⁵		po³⁵tɕaŋ⁵⁵		po³⁵tɕuŋ⁵⁵				po³²⁵tɕioŋ⁴⁵	558		
明晚	pɤ³⁵n̥e³⁵qa³¹mɦa³¹; pɤ³⁵ŋ̥ŋ³⁵		po³⁵ŋ̥ŋ⁵⁵		po³⁵m̥m⁵⁵							
星星	a⁴⁴qɔ̃³⁵		a³³qaŋ³⁵		naŋ³⁵qaŋ³⁵		ã³³kã¹¹	235	naŋ³²⁵qaŋ³²⁵	557		
春	tɕhĩ⁵⁵				tɕhiŋ⁵⁵							
昨天	qɛ⁵³n̥e³⁵		qa²²n̥ei³⁵		qa⁵³n̥e³⁵				qa⁴⁵ntle³²⁵	558		
昨晚	qɛ⁵³n̥e³⁵qa³¹mɦa³¹; qɛ⁵³ŋ̥ŋ³⁵		qa²²ŋ̥ŋ⁵⁵		qa⁵³m̥m⁵⁵							
是	ɕi⁵³		si⁵³		ɕi⁵³				ɕi⁵²	559		
晃（动）	jɦɔ³³		jɔ³³									
晒（太阳）	nto⁵⁵		no⁵⁵		ha⁵⁵							
晒（干）	ha⁵⁵		ha⁵⁵		ha⁵⁵							
晒谷台	qɛ⁵³ta³¹		a³³sɔ⁵⁵ha⁵⁵e⁵³		naŋ³⁵pɯŋ³¹pei³³							
晚上											kɑ⁴⁴mɑ²⁴	642
晚辈	phɛ³⁵qa³¹jʉ⁵⁵		phɛ³⁵qa²²ju⁵⁵		ju⁵⁵i¹³pai⁵⁵							
晚饭	ɪ̃⁵³qa³¹mɦa³¹		naŋ³³e⁵³ka³³ma²²		ja⁵³hwai⁵³							
晴（天）	ȵ̥tɕɔ³⁵		jaŋ⁵⁵		jaŋ⁵⁵							
暗	ŋɦɔ⁴⁴		ŋaŋ⁴⁴		quŋ³¹							
最	sɔ̃⁵⁵		thoŋ⁵⁵		tsi³⁵							
月	l̥a⁵⁵		l̥a⁵⁵		l̥a⁵⁵							
月（一月）	l̥a⁵⁵		l̥a⁵⁵		l̥a⁵⁵							
月中	pɤ³⁵ȵõ³⁵l̥a⁵⁵		ma²²ȵoŋ³⁵l̥a⁵⁵		taŋ³⁵khu³¹mpou³³							
月亮	a⁴⁴l̥a⁵⁵		a³³l̥a⁵⁵qa²²ma²²		naŋ³⁵l̥a⁵⁵		ã³³a³³lha³⁵	235	naŋ³²⁵tlʰa⁴⁵	557		
月初	a⁴⁴tɕi³⁵l̥a⁵⁵		heŋ³⁵jeŋ²²		ta¹³mpou³³							
月底	a⁴⁴mpjɔ³¹l̥a⁵⁵		a³³njo²²l̥a⁵⁵		tei³³l̥a⁵⁵kjou³¹							
有	mɦɪ³³		mi³³		mɯŋ³³							
朋友	qa³¹pɦɔ̃³¹		qo²²paŋ²²		mpuŋ³³ju¹³							
木匠	sɔ̃⁴⁴pja³⁵		saŋ⁴⁴tjo²²		muŋ⁵⁵ɕuŋ³¹							
木头	pja³⁵		tja³⁵		tsa³⁵							
木房	a⁴⁴pjo³¹pja³⁵		a³³tjo²²tja³⁵		pjo¹³pɯŋ¹³							
木料	pja³⁵		tja³⁵		tsa³⁵							
木筏	phɛ³⁵pja³⁵		tja³⁵ka³¹phɛ³⁵		phai³⁵tsa³⁵							
木耳	ɴqo³⁵mpɦjo³³		ŋou³⁵qhoŋ²²njo⁴⁴		ɴqo³⁵mpjo³³							
本（一本书）	pẽ³¹		peŋ²²		pɯŋ¹³							
朵（一朵花）	tɕõ³¹		tɕoŋ²²		tjo¹³							
杀									ta⁴⁵	559		
杀（鸡）	ta⁵⁵		ta⁵⁵		ta⁵⁵							
杉树	pja³⁵tɕĩ³⁵		tja³⁵tɕiŋ³⁵		tsa³⁵tɕiŋ³⁵							
杉皮房	a⁴⁴pjo³¹qa³¹ljʉ⁵⁵		a³³tjo²²qa²²lju⁵⁵		pjo¹³qhau³⁵lju⁵⁵							
李子	pe³¹lɦe³¹		tjei²²ljei²²		pjei¹³ljei²²							
村寨	a⁴⁴thɛ̃³⁵		a³³then³³		tshɯŋ⁵⁵				naŋ³²⁵tɕioŋ³¹	559		
条（一条绳子）	tɦɤ³³		tei³³		tei³³							
来	tɦe³³		tei³³		te³³				te⁴⁴	559		
杯											tin⁴⁴	641
杯子	qa³⁵tɕɛ̃⁵⁵		a³³tɕɛ⁵⁵		naŋ³⁵tjei⁵⁵							
松	sõ⁵⁵		soŋ⁵⁵		suŋ⁵⁵							
松树	pja³⁵sõ³⁵		tja³⁵soŋ³⁵		suŋ⁵⁵ɕu³⁵				tei⁴⁴tsa³²⁵ɕioŋ³²⁵	558		
松针	qa³¹mpɦjɔ³³pja³⁵sõ³⁵		tei³⁵tja³⁵soŋ³⁵		nuŋ²²							
松香	pi⁵⁵sõ³⁵		qa²²ti⁵⁵tja³⁵soŋ³⁵		suŋ⁵⁵ju³³							
松鼠	ŋ̩³¹tɔ̃³⁵ȵe³¹		taŋ³⁵neŋ²²		pjou⁵⁵lau²²ɕu¹³							
板壁	qɛ⁵³m̥ɛ⁵⁵pjo³¹pja³⁵		a³³mɛ⁵⁵tjo²²		mphai⁵⁵pjo¹³							
板子	qɛ⁵³pja³⁵		peŋ²²thoŋ²²		pɯŋ¹³							
板栗树	pja³⁵jɦʉ⁴⁴		tja³⁵ju⁴⁴		tsa³⁵pjei¹³ju³¹							
枕头	a⁴⁴ȵtɕa⁵⁵pi³¹		a³³ȵ̥aŋ⁵⁵ti²²		ntsuŋ⁵⁵tsi¹³							
果仁	ȵa³⁵pe³¹kɦwi³³		qa⁴⁴ti³¹kwi³³									
果壳	qa³¹qhɔ³⁵pe³¹		qa²²qhɔ³⁵tjei²²		qhau³⁵pjei¹³							
果实	pe³¹		tjei²²		naŋ³⁵pjei¹³							
果核	a⁴⁴qɦa⁴⁴pe³¹		qa⁴⁴tjei²²		qa³¹							
果皮	qa³¹ljʉ⁵⁵pe³¹		qa²²lju⁵⁵tjei²²		qhau³⁵pjei¹³							
枪	a⁴⁴tɕhõ³⁵qhe⁵⁵		tɕhoŋ³⁵		tɕhaŋ⁵⁵							
枫木树	pja³⁵ȵɦi³³		tja³⁵ȵi³³		tsa³⁵n̩³³							
枰砣	a⁴⁴qɔ⁵³ȵ̥ɔ̃⁵⁵		tho⁵³ȵ̥aŋ⁵⁵		tho³⁵ȵtɕhaŋ⁵⁵							
柑子	pe³¹lɦjɤ⁴⁴		tjei²²ljou⁴⁴su³⁵		pjei¹³kwai⁵⁵tsi¹³							
染（衣服）	tɔ̃³¹		taŋ²²		ȵei²²							
柚子	pe³¹lɦjɤ⁴⁴pɦɔ³³		tjei²²ljou⁴⁴pɔ³³		ntsɯŋ³³tsi¹³							
柜子	tɦɤ³³thɔ³⁵kwɤ³⁵		a³³thoŋ²²		naŋ³⁵tɕhi⁵³							
柱子	qa³⁵ŋkɦo³³		a³³ŋou³³tjo²²		ɴqo³³pjo¹³							
柳树			tja³⁵ljaŋ³³lju²²		tsa³⁵juŋ³³lju³¹							
柴							tə³¹	237				
柴刀	tɔ³⁵ɪ̃⁵⁵tɦɤ³¹		tɔ³⁵tou²²		tei³³nɯŋ³³							
柴火	tɦɤ³¹		tou²²		tou²²							
柿子	pe³¹mpɦja³¹		tjei²²nja²²		pjei¹³si⁵³tsi¹³							
树									tei⁴⁴tsa³²⁵	558		
树（总称）	pja³⁵		tja³⁵		tsa³⁵							
树皮	qa³¹ljʉ⁵⁵pja³⁵		qa²²lju⁵⁵tja³⁵		qhau³⁵tsa³⁵							
样子	ȵ̥tɕe⁵³		ȵ̥ei⁵³		ȵtɕhei⁵³							
根（一根棍子）	tɦɤ³³		tei³³		tei³³							
根（树根）	qɔ̃³³pja³⁵		koŋ³³tja³⁵		kuŋ³³tsa³⁵							
桃子	pe³¹kɦwi³³		tjei²²kwi³³		pjei¹³kwi³³				xou³²⁵pie²¹²kwei⁴⁴	558		
桌子	tɦɤ³³thɔ³⁵		tei³³thɔ³⁵		tei³³thau³⁵		tə³³tõ	237			tɑu²⁴	642
桔子			tjei²²ljou⁴⁴		tɕu³⁵tsi¹³							
桥	tɦɤ³³tɕɦe³³		tai³³tɕei³³		tje³¹							
桶	a⁴⁴thɔ̃⁵³pja³⁵		a³³thaŋ⁵³ŋa³⁵		naŋ³⁵thuŋ⁵³							
桶（一桶水）	thɔ̃⁵³		thaŋ⁵³		thuŋ⁵³							
梦	mpɪ⁵⁵		mi⁵⁵		mpi⁵⁵				bi⁴⁵	559		
梨	pe³¹jɪ³³		tjei²²jei³³		pjei¹³wjei³³							
梭子	tɦɤ³³qɔ̃³⁵nta⁵³		tei³³qaŋ³⁵na⁵³									
梯子（木梯）	tɦɤ³³tɦɤ⁵⁵; thɤ⁵⁵pja³⁵		thei⁵⁵		tei³³thei⁵⁵							
梯田	a⁴⁴thɛ⁵³lɦĩ³³		qa²²jei³³liŋ³³		mphai⁵⁵liŋ³³							
梳子	a⁴⁴jɦi⁴⁴		a³³ji⁴⁴tja³⁵		naŋ³⁵wi³¹							
棉花	mpɦo³³ha⁵⁵		ma³³ha⁵⁵		mjei³³hwa⁵⁵							
棉衣	ɤ³¹phɔ̃⁵⁵		ou²²phaŋ⁵⁵		au¹³ka⁵⁵							
棍子	tɦɤ³³pja³¹		tei³³tja²²		pja¹³							
棕榈树	pja³⁵sɛ⁵⁵		tja³⁵tɕoŋ⁵⁵		tsa³⁵tsuŋ⁵⁵							
森林	pja³⁵jɔ̃³¹		tja³⁵jaŋ²²		hou³⁵tsa³⁵							
棵（一棵树）	tɦɤ³³		tei³³		tei³³							
棺材	a⁴⁴hʉ⁵⁵tɕõ³¹		hu⁵⁵tja³⁵		fu³³tsa³⁵							
椅子	tɦɤ³³tɕɦe³³phẽ⁵³		tɕei³³po³³		i¹³tsi¹³							
植物油	ɔ̃³⁵jɦɤ³³		jou³³		jou³³							
椽子	qɔ³¹vɦa³¹		ɕɛ⁵⁵thi³⁵		ɕei³⁵mpi³³							
椿树	pja³⁵ji³⁵jɦa³³		tja³⁵ji³⁵ja³³		tsa³⁵jaŋ³³							
椿象（臭屁虫)	qɤ³⁵tõ⁵⁵qa³¹		qai³⁵toŋ⁵⁵qa²²		ta¹³phi³⁵tɕhuŋ³⁵							
楼（暗楼子）	so³⁵lɦɤ³³		so³⁵lai³³		lei³³							
楼房	a⁴⁴pjo³¹lɦɤ³³		qɔŋ³⁵lei³³									
楼梯	tɦɤ³³thɤ⁵⁵		thei⁵⁵		tei³³thei⁵⁵							
横	tɛ̃³¹		tɕɔ³¹qo²²		hwɯŋ³⁵							
欠（帐）	tɕɦɤ⁴⁴		tɕou⁴⁴		kei⁵⁵							
次（一次）	tɔ⁵⁵; vɦɤ⁴⁴		vei³³		kai⁵⁵							
歌	sɛ³¹		sɛ²²		sai¹³							
正	tɕɪ̃³¹		tɕi³⁵		tɕiŋ³¹							
正上面	a³¹vɦɔ̃³³		a³³vaŋ³³		qai⁵³waŋ³³							
正下面	a³¹to³⁵		a³³qoŋ³⁵		kuŋ³⁵le³³							
正房	a⁴⁴tɕɔ̃³¹		a³³tɕoŋ²²jɛ³³		to³⁵ɕaŋ¹³							
正月									tɕia²¹²nie³¹	558		
歪	le³¹; vɤ³¹		vei³¹		ljei¹³							
死	tɦe⁴⁴		tei⁴⁴		te³¹				te³¹	559		
段（一段路）	mpɦɤ³¹		thoŋ³⁵		thuŋ³⁵							
母亲	mɛ̃⁵³		a²²mɛ⁵³		nai³³mai⁵³		mai⁵³	236	nai⁴⁴mai⁵²	558	mae²⁵	641
母牛	mɛ̃⁵³ŋ̩ɦ³³		mɛ⁵³ŋ̩³³		mai⁵³n̩³³							
母狗	mɛ̃⁵³ljɔ̃⁵³		mɛ⁵³ljaŋ⁵³		mai⁵³ljaŋ⁵³							
母猪	mɛ̃⁵³mpe⁵⁵		mɛ⁵³mi⁵⁵		mai⁵³mpe⁵⁵							
母马	mɛ̃⁵³mɦɪ³¹		mɛ⁵³mi²²		mai⁵³me²²							
母鸡	mɛ̃⁵³qɛ³⁵		mɛ⁵³qɛ³⁵		mai⁵³qai³⁵							
每天	mpe³¹n̥e³⁵		mei²²n̥ei³⁵		n̥e³⁵n̥e³⁵							
毒（很毒）	tɕɤ⁵⁵		ȵa³⁵		tu³⁵							
毒（有毒）	tɕɤ³⁵		ȵa³⁵		tu³⁵							
毒蛇	nẽ³⁵tɕɤ⁵⁵		neŋ³⁵ȵa⁵³		nɯŋ³⁵tu³⁵							
比...	pi³¹		ti²²		pi¹³							
毛									xou³²⁵pi³²⁵	558		
毛（兽毛）	pi³⁵		ti³⁵		pi³⁵							
毛巾	qa³¹sɔ⁵³nte³¹mɦɪ⁴⁴		qa²²sɔ⁵³nei³³mi⁵⁵		ɕau⁵³ntse¹³muŋ¹³							
毛毛雨	phɔ⁵⁵ɔ̃³⁵mõ⁴⁴		a³³moŋ⁴⁴qai⁵⁵		taŋ³⁵aŋ³⁵nuŋ³¹							
毛笔	pi⁵⁵pi³⁵		ti⁵³nɔ³¹ti³⁵		mpau³³pi³⁵							
毛虫	ŋ̩³¹qɤ³⁵pi³⁵		qai³⁵ȵ̥i³⁵		qei³⁵pi³⁵							
毯子	tɪ³¹tɕe⁵⁵		lei²²pɔ³⁵m̥i⁵⁵		thai¹³tsi¹³							
水	ɔ̃³⁵		aŋ³⁵		aŋ³⁵		ã³³	236	xou³²⁵aŋ³²⁵	557		
水井	qa³¹pjɤ³⁵ɔ̃³⁵		a³³qhaŋ⁵³aŋ³⁵		tuŋ³³aŋ³⁵							
水果	pe³¹		tjei²²		naŋ³⁵pjei¹³							
水牛	ŋ̩ɦ³³ɔ̃³⁵		ŋ̩³³aŋ³⁵		n̩³³aŋ³⁵				ŋ̥⁴⁴aŋ³²⁵	558		
水獭	ŋ̩³¹ȵ̥a³⁵		ȵa³⁵		hau³⁵tha³⁵							
水笕	tɕɛ̃³¹ɔ̃³⁵		tɕɛ²²aŋ³⁵		tɕei¹³aŋ³⁵							
水蛭（蚂蝗）	pɪ̃³⁵		tiŋ³⁵		m̥a³¹uŋ³³							
水银	ɔ̃³⁵ŋ̩ɦ³³tɕɦi³¹		aŋ³⁵jiŋ³³tɕi³¹		n̩³³aŋ³⁵							
汉族	qhe⁵⁵		pa²²qhei⁵⁵		qhe⁵⁵							
汗	ɔ̃³⁵ntɤ⁵⁵		aŋ³⁵nai⁵⁵		aŋ³⁵ntei⁵⁵							
汗毛	pi³⁵sɛ̃⁵⁵mɦɔ³³		ti³⁵saŋ³³mɔ³³		pi³⁵mpje³³							
池塘	a⁴⁴kɔ̃³¹		a³³kaŋ²²njo²²		naŋ³⁵kaŋ¹³							
污垢	qa³¹vi³¹		qa²²vi²²		qa³¹ŋkwi²²							
汤	ɔ̃³⁵ji³⁵		aŋ³⁵ji³⁵		aŋ³⁵wi³⁵							
汤元	ɴqo³¹qo⁵⁵la³⁵; ŋo³¹qo⁵⁵la³⁵		ŋou²²nei³³		qa³⁵ljaŋ³⁵ɴqo¹³							
沉	pɦɛ̃³³		tɛ³³		ȵtɕiŋ³³							
沙子	qa³¹sa³⁵		qa²²sa³⁵		sa³⁵							
沟	tɕi⁵⁵ɔ̃³⁵		tei³³hɔ²²aŋ³⁵									
河	mɦa³¹ɔ̃³⁵		tei³³aŋ³⁵		qhaŋ⁵⁵				tɛi⁴⁴qhaŋ⁴⁵	557		
河水	mɦa³¹ɔ̃³⁵ŋ̩ɦ³¹ɔ̃³⁵		tei³³aŋ³⁵		aŋ³⁵							
沸（水）	mpɪ⁵⁵		mi⁵⁵		mpi⁵⁵							
油	ɔ̃³⁵jɦɤ³³		jou³³		jou³³		jə³¹	237				
油桐树	pja³⁵ko⁵⁵		tja³⁵ko⁵⁵		tsa³⁵pjei¹³qo⁵⁵							
泉	sʉ³¹tɕɛ̃³¹ɔ̃³⁵		tou³³aŋ³⁵									
泡	tɦɤ³³phɔ⁵³		tou³³phɔ⁵³		phau⁵³ȵtɕhei¹³							
泡（饭）	ȵtɕo⁵⁵		ȵo⁵⁵		ȵtɕo⁵⁵							
泡沫	ɔ̃³⁵mõ⁴⁴qa³⁵phɔ⁵³		a³³phɔ⁵³aŋ³⁵		phau⁵³aŋ³⁵							
波浪	ɔ̃³⁵nɛ̃⁵³		phɔ⁵³aŋ³⁵		nuŋ⁵³aŋ³⁵							
泥（稀泥）	qa³¹lɦe³³		qa²²lei³³		l̥ai¹³							
泥鳅	lɦi³³ɕʉ⁵⁵		liŋ³³ɕu⁵⁵		mpjo²²mɯŋ³⁵							
泼（水）	qhõ³⁵		qhoŋ³⁵		hja³¹							
洗（手）	nte³¹		nei²²		ntse¹³							
洗（洗手）									tsʰo⁴⁵	559		
洗（洗衣）									dze²¹²	559		
洗（衣服）	ȵ̥tɕʉ⁵⁵		ȵ̥u⁵⁵		ntsho⁵⁵							
洗澡	nte³¹tɦɔ̃³¹		nei²²taŋ²²		ntse¹³taŋ²²							
洞（山洞）	a⁴⁴qhõ³¹jɔ̃³¹		a³³qhoŋ²²jaŋ²²		qhuŋ¹³lo³³thuŋ⁵⁵							
洪水	ɔ̃³⁵tɦɤ⁴⁴		aŋ³⁵ȵaŋ²²		aŋ³⁵kwei³³							
流（水）	lɦja³¹		lo²²		ɴqa³¹							
流星	a⁴⁴qa³¹qɔ̃³⁵		qa⁴⁴tou²²vaŋ³³		qa³⁵qaŋ³⁵							
浅（水浅）	ȵɦɪ³¹		ȵi²²		n̩²²							
浅（颜色浅）	ȵɦɪ³¹		ȵi²²		n̩²²							
浇（水）	ȵtɕɦɔ⁴⁴		joŋ³⁵		tɕuŋ⁵⁵							
浑（水）	ȵɔ̃³¹		ȵaŋ²²		ntjuŋ¹³							
浑水	ɔ̃³⁵ȵɔ̃³¹		aŋ³⁵ȵaŋ²²		aŋ³⁵ntjuŋ¹³							
浮	phɔ³⁵		phɔ³⁵so³⁵		phau³⁵							
海	a⁴⁴hɛ³¹		a³³hɛ²²		hai¹³							
浸（种子）	tɕɦi⁴⁴		tɕi⁴⁴		tɕi³¹							
涉（水）	kwa⁵⁵		kwa⁵⁵		kwa⁵⁵							
涨（价）	ȵɦɔ̃³³		tɕaŋ³³		tjuŋ²²							
涩	mpɦa³³		ma³³		mpa³³							
淋（雨）	nɔ̃³⁵		leŋ³³		ntaŋ³⁵							
淘（米)	nte³¹		nei²²									
淡	tɕɦi⁴⁴		tɕi⁴⁴		tɕi³¹							
深（水深）	to³⁵		to³⁵		to³⁵							
深（颜色深）	to³⁵		to³⁵		to³⁵							
添（饭）	thẽ³⁵		theŋ³⁵		tɕhei⁵⁵							
清（水）	ȵ̥i³⁵		seŋ²²		tshɯŋ⁵⁵							
清楚	ȵ̥i³⁵		seŋ²²		tshɯŋ⁵⁵							
温（水）	ntɤ⁵³		nou⁵⁵		wɯŋ⁵⁵							
温水	ɔ̃³⁵ntɤ⁵³		aŋ³⁵nou⁵⁵		aŋ³⁵wɯŋ⁵⁵							
渴	qhe³¹		qhei²²		qhe¹³							
湖	a⁴⁴kɔ̃³¹		a³³hu²²		fu³⁵							
湿（衣服）	ve⁵³		vei⁵³		ŋkwe⁵³							
溃烂	m̥pɤ³⁵		m̥ai³⁵		qei⁵⁵							
溢	ȵɦɔ̃³¹		ȵaŋ²²									
滑（出溜）	ŋkɦʉ³¹		veŋ⁵⁵		qhou³¹							
滑（路滑）	ŋkɦʉ³¹		veŋ⁵⁵		qhou³¹							
滚（石头）	ljoŋ³¹		ljoŋ²²		kwɯŋ¹³							
满	pɔ̃³¹		paŋ²²		paŋ¹³							
滤（米）	lɦɪ³¹		lei²²		li⁵³							
滴（一滴水）	ɴqɦo⁴⁴		laŋ³⁵		ɴqa³¹							
滴（水）	ɴqɦo³³		ŋo⁴⁴		ɴqa³¹							
漆树	pja³⁵sɤ⁵³		tja³⁵sai⁵³		tsa³⁵sei⁵³							
漏（水）	kɦõ³¹		koŋ²²		ɴqo³³							
潜（水）	mpɦi³¹		ȵi³⁵		kuŋ⁵⁵							
火	a⁴⁴tɦɤ³¹		qa²²tou²²		tou²²		tə³¹	237	naŋ³²⁵tao²²	558	lɑŋ⁴⁴tau⁴⁴	642
火把	ŋkɔ³¹pi⁵⁵		a³³pɔ⁵⁵tou²²		pau⁵⁵tou²²							
火星子	qa³⁵nẽ³⁵tɦɤ³¹		qa²²neŋ³⁵tou²²		sɯŋ⁵⁵tou²²							
火炭	a⁴⁴thɛ̃⁵⁵tɦɤ³¹		thɛ⁵⁵tou²²		thai⁵⁵tou²²							
火苗	a⁴⁴mpɦjɔ⁴⁴tɦɤ³¹		a³³njaŋ⁴⁴tou²²									
火药	sɤ⁵⁵		ȵa³⁵tɕhoŋ³⁵		thi⁵³lei³⁵tɕuŋ³⁵							
火钳	pa³¹ŋkɛ⁵³		pa²²ŋɛ⁵³		tei³³ɴqai⁵³							
灯（油灯）	a⁴⁴pi⁵⁵		a³³ti⁵⁵		tɯŋ⁵⁵							
灰	m̥pɔ³¹		m̥o²²		hwei⁵⁵							
灰（草木灰）	qa³¹ɕe³¹		qa²²si²²		ɕi¹³							
灶	a⁴⁴tɕɔ³⁵		pei⁴⁴sɔ⁵⁵		naŋ³⁵tsau⁵⁵							
灶灰	qa³¹ɕe³¹		qa²²si²²		ɕi¹³							
炒	ȵi³¹		ȵ̥i³¹		m̥iŋ¹³							
炖（肉）	fɪ⁵⁵		teŋ⁵⁵		tɕaŋ³⁵							
炭窑	a⁴⁴qho³¹thɛ̃⁵⁵		jou³³thɛ⁵⁵		naŋ³⁵jou³⁵thai⁵⁵							
炮	a⁴⁴pɦɛ̃³³tɕhõ³⁵		ta³⁵phɔ³⁵		qou²²phau⁵⁵							
点（头）	fɔ̃⁵³		kwaŋ⁵³		nthau³⁵							
点（灯）	tɤ⁵³		tai⁵³		tei⁵³							
烂（嘴角）	qɤ⁵⁵		qai⁵⁵		qei⁵⁵							
烂（煮烂）	m̥pɤ³⁵		m̥ai³⁵		qei⁵⁵							
烟											jie⁴⁴	641
烟（火烟）	qa³¹ʉ³⁵		qa²²u³⁵		u³⁵tou²²							
烟（香烟）	jẽ⁵⁵		jɛ⁵⁵		jei⁵⁵							
烟叶	jẽ⁵⁵qa³¹mpɦjo³³		jɛ⁵⁵qa²²njaŋ³³		nuŋ³³je⁵³							
烤											lo⁴⁴tɑu⁴⁴	642
烤（火）	nto⁵⁵		no⁵⁵		nto⁵⁵							
烤（衣）	mpe³¹		nei²²		phei⁵³							
烧	qɔ̃³⁵; lɔ⁵³		qaŋ³⁵		qaŋ³⁵							
烧（柴）	pho³¹		pho²²		tjaŋ³⁵							
烫（手）	so³¹		so²²		ɕo¹³							
热									ɕio²¹²	560		
热（天热）	vo⁵⁵		tɕaŋ³⁵		qaŋ³⁵							
热（水）	qɔ̃³⁵		qaŋ³⁵		qaŋ³⁵							
热水	ɔ̃³⁵qɔ̃³⁵		aŋ³⁵qaŋ³⁵		aŋ³⁵qaŋ³⁵							
煎（药）	ŋkɔ⁵³		ŋɔ³¹		tɕou¹³							
煎（鱼）	tɕɛ̃⁵⁵		ȵ̥i²²		tɕei⁵⁵							
煤	mɤ³¹thɛ̃³⁵		thɛ³⁵qa²²jɔ³⁵		mpei³³thai³⁵							
照（镜子）	tɕɤ³⁵		tɕou³⁵		tɕou³⁵							
煮（饭）	tɕɤ³¹		tɕou²²		tɕou¹³							
熏（肉）	ʉ³⁵		u³⁵		u³⁵							
熟（肉）	sẽ³¹		seŋ²²		ɕiŋ¹³							
燃	tɦɤ⁴⁴; qɔ̃³⁵		qaŋ³⁵		ntja⁵⁵							
燕子	qa³¹ljɔ̃³¹pɦa³³		qa²²ljaŋ²²khɛ³⁵		jei³⁵tsi¹³		kə²¹ljã¹¹xaŋ⁵³	236				
爪	qa³¹vi⁵⁵		qa²²vei⁵⁵		tsau³⁵							
爬（树）	ȵtɕo⁵⁵		qɔ³³		pja³³							
爬（虫爬）	pja³³; ȵtɕo⁵⁵		qɔ³³		qau³³							
爱	ŋkɦe⁴⁴		ŋɛ³⁵		ŋkjei³⁵							
父亲	pa⁵³		a²²pa⁵³		nai³³pa⁵³		pa⁴²	236	nai⁴⁴pa⁵²	558	pʌ²⁴	641
片（一片叶子）	qɛ⁵³		qɛ⁵³		qai⁵³							
牙齿	m̥ɪ³¹		qa⁴⁴ȵ̥i²²		tei³³m̥iŋ¹³							
牛	ŋ̩ɦ³³		ŋ̩³³		n̩²²n̩³³		kəŋ³³	236	ŋ̥²²ŋ̥⁴⁴	558	ŋ²¹³	642
牛圈	a⁴⁴tɕɦõ³³ŋ̩ɦ³³		a³³tɕoŋ³³ŋ̩³³		tjuŋ³³n̩³³							
牛犊	tɔ̃³⁵ŋ̩ɦ³³		taŋ³¹ŋ̩³³		taŋ³⁵ȵei³⁵n̩³³							
牛粪	qa³¹ŋ̩ɦ³³		qa²²ŋ̩³³		qa¹³n̩³³							
牛虱	nɔ̃³¹ŋ̩ɦ³³		naŋ²²ŋ̩³³		ntaŋ¹³n̩³³							
牛轭	a⁴⁴ŋkɦo³³a⁵⁵		a³³ŋo³³a⁵⁵		kuŋ⁵⁵n̩³³							
牢固	mpa³¹		noŋ⁴⁴		nɯŋ³¹							
牵（牛）	tɕhẽ³¹		thu³⁵		tɕhei¹³							
特牛	phe⁵³ŋ̩ɦ³³		thei⁵³ŋ̩³³		phjei⁵³n̩³³							
犁	khe³⁵		khei³⁵		tei³³li³³		ka³¹li³³	237				
犁（地）	khe³⁵		khei³⁵		li³³							
犁田											di²¹³liŋ²¹³	642
犁铧	qɛ⁵³mpɦjɔ³³khe³⁵		qa²²njaŋ³³									
犬牙	m̥ɪ³¹mpe⁵⁵		a³³jaŋ³³									
狐狸	qa³¹vɔ̃⁵⁵kɦwɤ³³		taŋ³⁵kwaŋ²²									
狗	ŋ̩³¹ljɔ̃⁵³; qa³⁵ljɔ̃⁵³		qa²²ljaŋ⁵³		ljaŋ⁵³		kə³³ljã⁵⁵	236			liɑŋ²⁴	642
狗尾草	so³¹tɛ³¹lẽ⁵³		so²²ti³⁵ljaŋ⁵³		so¹³m̩³¹							
狗崽	tɔ̃³⁵ljɔ̃⁵³		taŋ³⁵ljaŋ⁵³		taŋ³⁵ȵei³⁵ljaŋ⁵³							
狗熊	qɦɛ³³kɦwɔ̃⁴⁴		mi⁴⁴loŋ³³									
狮子	ŋ̩³¹tɕi⁵⁵lɦi³³				tsi⁵³tsi¹³							
狼	ŋ̩³¹sɛ³⁵khe³¹		saŋ³⁵kei²²									
猜	kɦʉ³¹		tu²²		tshai⁵⁵							
猪	mpe⁵⁵		mi⁵⁵		mpe⁵⁵		məi⁵⁵	236	ŋ̥²²be⁴⁵	558	bve⁴⁴	642
猪圈	a⁴⁴tɕɦõ³³mpe⁵⁵		a³³tɕoŋ³³mi⁵⁵		tjuŋ³³mpe⁵⁵							
猪崽	tɔ̃³⁵mpe⁵⁵		taŋ³⁵mi⁵⁵		taŋ³⁵ȵei³⁵mpe⁵⁵							
猪油（板油)	jɦɤ³³mpe⁵⁵		jou³³mi⁵⁵		jou³³mpe⁵⁵							
猪粪	qa³¹mpe⁵⁵		qa²²mi⁵⁵		qa¹³mpe⁵⁵							
猪食	ɪ̃⁵³mpe⁵⁵		e⁵³mi⁵⁵		kaŋ⁵⁵mpe⁵⁵							
猫	qa³¹mpɔ³⁵		qa²²mɔ³⁵		mpau³⁵						bɑu⁴⁴	642
猫头鹰	qɤ³⁵qhɔ̃³¹		qou³⁵		pu³⁵juŋ¹³							
猴子	tɔ̃³⁵tɕo³⁵		taŋ³⁵tɕu³⁵		n̩²²tɕo³⁵							
玉米	ȵõ⁵³me³¹		e⁵³neŋ²²		pau³³ku⁵⁵							
玩耍	ɪ̃⁵⁵ɴqɤ⁵³		i⁵⁵ŋou⁵³		hje¹³							
玻璃	qa³⁵ljɔ̃³⁵		qa²²tɕɔ³⁵njɛ³¹		tɕou³⁵tsi¹³							
球	tɕhɤ³¹		a³³tɕhu³⁵		tɕhu³⁵							
瑶族	pa³¹ŋ̥ŋ³⁵		pa²²ŋ̥ŋ³⁵		m̥m³⁵nai³³							
瑶族人									qm³¹nai⁴⁴	558		
瓜									xou³²⁵pie²¹²	558		
瓜（总称）	pe³¹kwa³⁵		kwa³⁵		pjei¹³							
瓢	a⁴⁴fɔ³⁵ɔ̃³⁵		a³³hɔ³⁵aŋ³⁵		kwa⁵⁵phjou³⁵							
瓦	vɦa³¹		va²²		ŋkwa²²							
瓦匠	sɔ̃⁴⁴vɦa³¹		saŋ⁴⁴va²²		wa²²ɕuŋ³¹							
瓦房	a⁴⁴pjo³¹vɦa³¹		a³³tjo²²va²²		pjo¹³ŋkwa²²							
瓦窑	a⁴⁴qhõ³¹vɦa³¹		jou³³va²²		naŋ³⁵jou³³ŋkwa²²							
瓶（一瓶酒）	pɦĩ³³		tiŋ³³		pu²²							
瓶子	a⁴⁴pɦĩ³³		a³³tiŋ³tɕou²²		naŋ³⁵mpɯŋ³³tsi¹³							
甑子	a⁴⁴tɕɔ̃⁵⁵		a³³tɕaŋ⁵⁵		naŋ³⁵tɕaŋ⁵⁵							
甘蔗	qa³¹je³¹		qa²²jei²²nei³³		qe¹³							
甘薯	lɦe³³kɦwɤ³³		lei³³kwei³³		nte³³tai³¹				xou³²⁵de⁴⁴pei²²pʰao²²	558		
甜	qɤ³⁵		qai³⁵		qei³⁵				qei³²⁵	560		
甜酒	tɕɤ³¹qɤ³⁵		tɕou²²qai³⁵		tɕou¹³qei³⁵							
生（小孩）	kõ³⁵		tu⁴⁴		kuŋ³⁵							
生（肉）	ȵɦõ³¹		ȵoŋ²²		ȵuŋ²²							
生（蛋）	tɦʉ⁴⁴		tu⁴⁴		nto³¹							
生姜	ȵɪ³¹		ŋeŋ²²		ɴqɯŋ¹³							
生孩子											doŋ²¹³ȵin²⁴	642
生气	tɕõ³⁵tɕhi³⁵		tɕaŋ³⁵tɕhi³⁵		tɕuŋ³⁵tɕhi³⁵							
生疮	ɴqɤ⁵⁵a⁴⁴tɕhõ³⁵		teŋ²²ȵa³⁵		tei⁵⁵qa³⁵tja⁵⁵							
用			joŋ⁴⁴		juŋ³¹							
用...			joŋ³¹		naŋ³⁵							
田									xou³²⁵liŋ⁴⁴	558		
田（水田）	lɦĩ³³		liŋ³³		liŋ³³							
田坎	khwɛ̃⁵⁵lɦĩ³³		pei²²liŋ³³		khwai⁵⁵liŋ³³							
甲鱼	ŋ̩³¹pɪ⁵⁵		hu⁵⁵tɕi⁵⁵		ntai³³ju³³							
男							kə³¹tb¹¹	236				
男人	qo³¹tɔ̃³⁵		qo²²taŋ³⁵njɛ³³		qa⁵³taŋ³⁵nai³³				qa⁴⁴taŋ³²⁵nai⁴⁴	558		
画眉鸟	ɤ⁵³tɕɔ̃³⁵		ou⁵³tɕaŋ³⁵		ljo⁵⁵							
留（客）	kha³¹		lju²²		kha³¹							
疟疾	ĩ⁵⁵hɤ³⁵ŋɦɛ³¹		mɛ²²ȵɔŋ⁵⁵		ta¹³pai¹³tsi¹³							
疤	a⁴⁴ȵɪ³¹		qa⁴⁴tei⁵³a³⁵		pa⁵⁵tsi¹³							
疮	a⁴⁴ȵa³⁵		qa⁴⁴ȵa³⁵		qa³⁵tja⁵⁵							
疯子	qhɔ̃³¹		ma³⁵qhaŋ³³		tjei⁵⁵tsi³							
病	ma³⁵		ma³⁵		mai³⁵							
痒	ŋkʉ⁵³		ŋou⁵³		ŋku⁵³							
痛	ma³⁵		ma³⁵		ma³⁵				ma³²⁵	560		
痣	a⁴⁴pa⁵⁵tɕɦi³¹		a³³pa⁵⁵tɕi²²		tsi³⁵							
痰	qa³¹mpɦjɔ⁴⁴		qa²²njɔ³³		ntshai⁵³							
痱子	qa³⁵ȵ̥e³⁵n̥e³⁵		qa⁴⁴ȵi³⁵ȵ̥ei³⁵		qa³⁵tɕuŋ³³							
瘦（人）	ȵtɕɦi⁴⁴		tho⁵⁵		thau⁵⁵							
瘦（肉）	ȵtɕɦi⁴⁴		tho⁵⁵		thau⁵⁵							
瘦肉	ɴqɦɛ³³ȵtɕɦi⁴⁴		ŋɛ³³ȵi⁴⁴		ɴqai³³ȵtɕi⁴⁴							
瘪的	je³¹				pai³⁵hwa²²							
癖	a⁴⁴pɦɤ³³tɕɦɪ³³		qa⁴⁴ku⁵³jɛ³¹		qa³⁵ɕei¹³							
癞蛤蟆	kɤ⁵³tɕho³⁵		kou⁵³tɕho³⁵		kjou⁵³thjo³⁵							
白	kwɔ³⁵		kɔ³⁵		kwau³⁵		kwɔ¹¹	237	kwao³²⁵	560		
白天	qa³¹n̥e³⁵		qa²²n̥ei³⁵		n̥e³⁵waŋ³³				qa⁴⁴ntle³²⁵vaŋ⁴⁴	558		
白糖	mpɦɪ³³ȵtɕo³¹		njei³³ȵu²²		mpjei³³kwau³⁵							
白菜	ji³⁵kwɔ³⁵		ji³⁵kɔ³⁵		pe³⁵tshei³⁵				i³²⁵kwao³²⁵	558		
百							pe⁵⁵	237				
百（一百）	pe⁵⁵		pe⁵⁵		pe⁵⁵							
皮肤	qa³¹ljʉ⁵⁵		qa²²lju⁵⁵		qhau³⁵							
皮鞋	hɛ³⁵qa³¹ljʉ⁵⁵		hɛ³⁵ka²²lju⁵⁵		mpi³³hai³⁵							
皱	jɔ⁵³		nja²²		ŋ̥a⁵⁵							
皱纹	qa³⁵jɔ⁵³		jɔ⁵³									
盆	a⁴⁴pja³⁵		a³³tja³⁵		naŋ³⁵pu³³							
盐	ȵtɕo³¹		ȵo²²		ȵtɕo¹³		ȵo³³	237	dʑo²¹²	559		
盒子	a⁴⁴pɔ⁵⁵		a³³ho²²pɔ⁴⁴		ho³⁵tsi¹³							
盖（被子）	va³¹		tha²²		wa¹³							
盖（锅）	pho⁵⁵		a³³pho⁵⁵		pho⁵⁵							
盘（腿）	khʉ⁵³		khu⁵³		ȵtɕei³¹							
盛（饭）	fɤ⁵³		tɕu⁵⁵		tju⁵⁵							
直	tɦẽ³³		teŋ³³		ȵtɕuŋ³⁵				dʑoŋ³²⁵	560		
相信	sẽ⁵⁵		seŋ⁵⁵		sɯŋ³⁵							
相爱	ta³¹vɤ⁵⁵		ta³¹ŋɛ³⁵		ta³¹jaŋ⁵⁵							
相骂											dʌ²¹³mə⁴⁴xen²⁴	642
眉毛	pi³⁵mɦɪ⁴⁴		ti³⁵mi⁴⁴		pi³⁵me³¹						pi⁴⁴mei²¹³	641
看	jɦɔ̃³³		jaŋ³³		phu⁵³				biou³³	559		
看见	pɦa³¹		pa³¹		pha³¹							
真（话）	tɕĩ⁵⁵; tẽ³⁵		tɕiŋ⁵⁵		tɕiŋ⁵⁵							
眼泪	ɔ̃³⁵mɦɪ⁴⁴		aŋ³⁵mi⁴⁴		aŋ³⁵me³¹							
眼珠	a⁴⁴lɔ̃³⁵mɦɪ⁴⁴		a³³lja³³mi⁴⁴		ljaŋ³⁵me³¹							
眼皮	qa³¹ljʉ⁵⁵mɦɪ⁴⁴		qa²²lju⁵⁵mi⁴⁴		qhau³⁵me³¹							
眼睛	a⁴⁴qõ⁵⁵mɦɪ⁴⁴		qoŋ⁵⁵mi⁴⁴		naŋ³⁵me³¹		kɔŋ³³mə³³	236	maŋ³²⁵mẽ³¹	558	lɑŋ⁴⁴mei²¹³	642
眼角	a⁴⁴ntɤ³¹mɦɪ⁴⁴		a³³lu²²		ko³⁵me³¹							
眼镜	a⁴⁴tɕɤ³⁵ŋɦɛ³¹		naŋ⁵⁵tɕɔ³⁵nɛ⁵³		ŋai²²tɕiŋ⁵⁵							
睁开（眼睛）	pɔ⁵³		pɔ⁵³		ntje⁵⁵							
睡	pɤ⁵⁵		vaŋ³⁵		pei⁵⁵				pei⁴⁵	559		
睡着	vɔ̃³⁵		vaŋ³⁵		pei⁵⁵							
睡觉											pei⁴⁴uɑŋ²⁴	642
睫毛	pi³⁵mɦɪ⁴⁴		ti³⁵mi⁴⁴		pi³⁵me³¹							
瞎	tõ⁵⁵		toŋ⁵⁵		ha⁵⁵							
瞎子	tõ⁵⁵mɦɪ⁴⁴		toŋ⁵⁵mi⁴⁴		ha⁵⁵tsi¹³							
瞳人	a⁴⁴tɔ̃³⁵mɦjɛ³³		taŋ³⁵njɛ³³		taŋ³⁵nai³³							
知道	pɪ³⁵		ko⁵³pi³⁵		pi³⁵to¹³						pi⁴⁴tɑu⁴⁴	642
短	lɔ̃³¹		laŋ²²		laŋ¹³				laŋ²¹²	560		
短裤	a⁴⁴hɔ³¹lɔ̃³¹		tɕou⁵³hɔ²²		naŋ³⁵ŋkhau¹³laŋ¹³							
矮	ŋkɦe³¹		ŋi²²		ɴqe²²		ŋhe³¹	236				
石头	qa³¹jo³⁵		qa²²jo³⁵		ntjou³³tsi¹³jo³⁵				naŋ²²⁵io³²⁵	558		
石灰	sɔ⁵³hɤ⁵⁵		sɔ⁵³hai⁵⁵		thai⁵⁵							
砍									pʰa⁵²	559		
砍（树）	nto³¹		nou²²		nto¹³							
砍树											tɔ⁴⁴tsɑ⁵³	642
砖	a⁴⁴tɕɛ̃⁵⁵tho³⁵		tɕɛ⁵⁵tho³⁵		tɕei⁵⁵							
破（碗破）	qɤ⁵⁵		qai⁵⁵		qei⁵⁵							
硬	te³¹		tei²²		te¹³				te²¹³	560		
碓	a⁴⁴tɪ⁵⁵		a³³ti⁵⁵		tai²²							
碓杵	tɦɤ³³mpe³¹tɪ⁵⁵		a³³ti⁵⁵		nthei³¹tɕo²²							
碓臼	a⁴⁴tɕɦo³¹		a³³tɕo³³ti⁵⁵		tai²²tɕo²²							
碗	a⁴⁴tɦɛ³¹		a³³po⁵⁵		naŋ³⁵tai²²		te³¹	237	naŋ³²⁵tai²²	559	lɑŋ⁴⁴tɛ²⁴	641
碗（一碗饭）	tɦɛ³¹		po⁵⁵		tai²²							
碟子	a⁴⁴phjɛ̃³¹		a³³thjɛ²²		thje³⁵tsi¹³							
碱	tɕẽ⁵³		tɕiŋ⁵³									
碾（米）	mpɦʉ³¹		ȵin²²		ȵei²²							
磨	a⁴⁴mpʉ³¹		a³³mu²²		naŋ³⁵jo³⁵mphu²²							
磨（刀）	ho³¹		ho²²		ho¹³							
磨（谷）	mpɦʉ⁴⁴		li³⁵		mphu³¹							
磨刀石	a⁴⁴jo³⁵ho³¹tɔ³⁵		a³³jo³⁵		jo³⁵mpa⁵³							
祖母	ɤ⁵³		a²²ou⁵³		nai³³au⁵³		ə⁴²	236	nai⁴⁴ao⁵²	558	ɑu²⁴	641
祖父	pɤ⁵³		a²²pou⁵³		nai³³pou⁵³		pɔ⁴²	236	nai⁴⁴pou⁵²	558	pɑu²⁴	641
神	ŋ̩³¹sɔ̃⁵⁵		a³³sɛ⁵³		kwei³⁵							
秃	mpɦɪ⁴⁴		veŋ⁴⁴		ŋkwei²²							
秃子	kɦwɛ³³ȵ̥i³⁵		qhɔ³³lɔ³³a³⁵		kwaŋ³⁵lau²²kho³⁵							
秋	tɕhɤ⁵⁵				tɕhu⁵⁵							
种（菜）	ȵtɕɤ⁵⁵		tɕu⁵⁵		ȵtɕou⁵⁵							
种子	ȵõ³⁵		e⁵³ȵoŋ³⁵		ȵuŋ³⁵							
种田											ȵien⁴⁴xo²⁴	642
秤	pa³¹ȵ̥ɔ̃⁵⁵		tei³³ȵ̥aŋ⁵⁵		pa¹³ȵtɕhaŋ⁵⁵							
秤杆	tɦɤ³³ȵ̥ɔ̃⁵⁵		tei³³tja³⁵ȵ̥aŋ⁵⁵		qe¹³ȵtɕhaŋ⁵⁵							
秤钩	a⁴⁴ɴqɔ³⁵ȵ̥ɔ̃⁵⁵		a³³ŋɔ³⁵ȵ̥aŋ⁵⁵		ɴqau³⁵ȵtɕhaŋ⁵⁵							
秧子	jɔ̃³⁵		jaŋ³⁵		jaŋ³⁵							
称（东西）	tɕhɔ̃³⁵		tɕhaŋ³⁵		ɕaŋ³⁵							
稀	ɕa³⁵		hjɔ³⁵		jei²²							
稗子	phja⁵³		phja³¹		hou³⁵phja³¹							
稠	ɴqɦa⁴⁴		kaŋ⁴⁴tei²²		qhe³¹							
稳	nɦʉ⁴⁴		veŋ²²		wɯŋ¹³							
稻子	mpɦjo³³		mu³³e⁵³		mpjou³³pei²²				xou³²⁵bei²²	558		
稻草	qa³¹ȵ̥ɔ³⁵tɕẽ⁵⁵		qa²²ȵ̥o⁵⁵		ntshau³⁵							
穗子	a⁴⁴n̥e³⁵pɦɤ³¹		a³³njɔ³¹e⁵³		n̥ɯŋ³⁵pei²²							
穷	khwi⁵⁵		khwi⁵⁵		kuŋ³³							
空的	qhõ³⁵		tɕaŋ³³		qhuŋ³⁵							
穿（穿衣）									tlʰeŋ²²	559		
穿（穿鞋）									tiou⁴⁵	559		
穿（衣）	n̥ẽ³¹		n̥eŋ²²		n̥ɯŋ¹³							
穿（针）	phjõ³⁵		thjoŋ³⁵		phjuŋ³⁵							
穿（鞋）	tɕʉ⁵⁵		tɕu⁵⁵		tju⁵⁵							
穿山甲	ŋ̩³¹jɦe⁴⁴		neŋ²²jei⁴⁴		n̩²²wjei³¹							
窄	ŋkɦɛ³¹		ŋɛ³¹		ɴqhai³¹							
窗户	sɛ̃⁵⁵		a³³taŋ³⁵tɕaŋ³³		ke³⁵tsi¹³							
窟窿	a⁴⁴qhõ³¹		a³³qhoŋ²²		qhuŋ¹³							
竖	ȵtɕɦo³³		ȵo³³		ȵtɕou³³							
站	tɕɦa⁴⁴		tɕa⁴⁴		ɕou¹³				siou²¹²	559		
竹壳	qa³¹qhɔ³⁵mpɦɪ⁴⁴		qa²²qhɔ³⁵nei⁴⁴		qhau³⁵mpje³¹							
竹子	pɦo³³		tei³³po³³		tei³³po³³				tei⁴⁴po⁴⁴	558		
竹排	phɛ³⁵pɦo³³		phɛ³⁵po³³		phai³⁵po³³							
竹笋	mpɦɪ⁴⁴		nei⁴⁴		mpje³¹							
竹鼠	qa³⁵lja³⁵		neŋ²²ka⁵³		nɯŋ²²mpjo³⁵							
笑	tɕa⁵³		tɕa⁵³		tja⁵³				tia⁵²	559		
笛子	vɤ⁵³		tei³³vei⁵³		thi³⁵tsi¹³							
第一	qa³¹je³¹		ti²²jei²²		thi⁵³i³⁵							
第五	qa³¹pja³⁵		ti²²tja³⁵		thi⁵³u²²							
第八	qa³¹jɦi³¹		ti²²ji³¹		thi⁵³pa⁵⁵							
笸箩	a⁴⁴pɦɛ̃⁴⁴lɦʉ³³mpɦa³¹		qa⁴⁴pɛ⁵⁵lo³³		qou²²lu³³							
等候	tɦẽ³¹		teŋ²²		tɯŋ²²							
筋	qa³¹sɪ³¹		qa²²si²²		ɕi¹³							
筐（一筐菜）	lɦʉ³³		lo³³		lu³³							
答	nto³⁵		ta³³		ta³⁵				do³²⁵	559		
答应	nto³⁵		ta³³		ta³⁵							
筛（米）	ɕɛ³¹		hjɛ²²		hei¹³							
筛子	a⁴⁴ɕɛ³¹		a³³hjɛ²²		naŋ³⁵hjei¹³							
筷子	tɕɦɔ⁴⁴		tɕɔ⁴⁴		tjau³¹		ŋe⁴²ȶo³³	237	tei⁴⁴tiao³¹	559		
箍子	a⁴⁴mõ⁵⁵thɔ̃⁵³		qa⁴⁴moŋ⁵⁵thaŋ⁵³		naŋ³⁵mpuŋ⁵⁵							
管理	kwɛ̃³¹li⁵³		kwɛ²²lei²²		kwai⁵⁵li²²							
箩筐	a⁴⁴lɦʉ³³mpɦa³¹		qa⁴⁴lo³³		lu³³							
箭	tɦɤ³³sɔ̃³⁵		tei³³n̥i²²		tei³³saŋ³⁵							
箱子（木箱）	a⁴⁴te³⁵pja³⁵		qa⁴⁴tei³⁵tja³⁵		naŋ³⁵ɕuŋ⁵⁵tsi¹³							
篓子	a⁴⁴tɕe³⁵tɕɦɔ̃³³		a³³tɕhoŋ⁵⁵		naŋ³⁵tsa¹³							
篦子	a⁴⁴ɕe³⁵		a³³hjei³⁵		naŋ³⁵hei³⁵							
篱色	a⁴⁴pɦɔ̃³³pɦo⁴⁴		qɛ⁵³ta³¹pɔ³³		phai⁵⁵hje⁵⁵							
篾条	qa³¹ljʉ⁵⁵pɦo³³		lju⁵⁵po³³		qai⁵³ȵtɕu⁵⁵							
簸（米）	phja⁵³		thja⁵³		pjuŋ¹³							
簸箕	a⁴⁴vɤ³⁵		qa³³vei³⁵		naŋ³⁵wei³⁵							
米	ȵtɕʉ⁵⁵		ȵu⁵⁵		ntsu⁵⁵		ȵu⁵⁵	237	xou³²⁵tsɿ⁴⁵	559	tsɿ²⁴	642
米汤	ɔ̃³⁵ɪ̃⁵³		aŋ³⁵ȵu³³		aŋ³⁵qei³⁵							
米虫（米象）	qɤ³⁵ȵtɕʉ⁵⁵		qai³⁵ȵu⁵⁵		qei³⁵ntsu⁵⁵							
粉	mjɛ⁵³		hwen³³		mpaŋ¹³							
粉条	kwɔ³³		hwen³³		mpaŋ¹³							
粑粑	ɴqo³¹; ŋo³¹		a³³ŋou²²		ɴqo¹³							
粒（一粒米）	lɔ̃³⁵		laŋ³⁵		naŋ³⁵							
粗（树）	pɦɛ̃⁴⁴		pɛ⁴⁴		qu²²							
粗（粉）	ȵ̥tɕa³⁵		ȵ̥a³⁵		ntsha³⁵							
粗糙	ȵ̥tɕa³⁵		ȵu⁵⁵ȵ̥a³⁵		ntsha³⁵							
粗糠（谷壳)	qa³¹m̥e⁵⁵ȵ̥a³⁵		qa²²m̥ei⁵⁵ȵ̥a³⁵		mphe⁵⁵ntsha³⁵							
粥	kɔ̃⁵⁵		kaŋ⁵⁵		kaŋ⁵⁵							
粪	qa³¹; ji⁵⁵		ji⁵⁵		qa¹³							
粮食	ɪ̃⁵³		ljaŋ³³		ljuŋ³³ɕi³⁵							
粽子	ɴqo³¹tɕõ⁵⁵; ŋo³¹tɕõ⁵⁵		ŋou²²tɕoŋ⁵⁵		ɴqo¹³tsuŋ³⁵pa⁵⁵							
糖	mpɦɪ³³		njei³³		mpjei³³							
糯米	ȵtɕʉ⁵⁵mpɦʉ³¹		ȵu⁵⁵nju³¹		ntsu⁵⁵nthu³¹							
紧	tɕɪ̃³¹		tɕeŋ²²		tei⁵⁵							
累	khwẽ³⁵; ŋɦɛ³¹		tɕu⁵⁵ja⁴⁴; nei²²		no³⁵							
红	tɦɤ⁴⁴		tai⁴⁴		tai³¹		tə³³	237	tai³¹	560		
红土	qa³¹lɦe³³tɦɤ⁴⁴		qa²²lei³³tai⁴⁴		l̥ai¹³tai³¹							
红糖	mpɦɪ³³kɦwɤ³³phɛ³⁵		njei³³qa²²phɛ³⁵		tɕei⁵⁵ntuŋ³³							
红辣椒									pie²¹²tai³¹	558		
纸	ntɔ³¹		nɔ²²		ntau¹³ko¹³							
纺（线）	ȵtɕɦɛ⁴⁴		ȵɛ⁴⁴		huŋ¹³							
纺车	a⁴⁴sa³¹		a³³sa³¹		tɕha⁵⁵							
纽扣	a⁴⁴sʉ³¹		qa³³su³¹ou³¹taŋ³³		ljaŋ³⁵au¹³							
线	mpo³¹sẽ⁵⁵		mo²²seŋ⁵⁵		mpo¹³							
细（竹竿）	jʉ⁵⁵		ju⁵⁵		ju⁵⁵							
细（粉）	mɦa³¹		ma²²li³⁵		ma²²							
细糠	qa³¹m̥e⁵⁵		qa²²m̥ei⁵⁵		mphe⁵⁵							
织（布）	nta⁵³		na⁵³		nta⁵³							
织（毛衣）	sa³¹		qeŋ³⁵		nta⁵³							
织布机	tɦɤ³³nta⁵³ntɪ³⁵		tei³³na⁵³ni³⁵									
绊（倒）	phɛ̃⁵⁵		kwɛ⁴⁴		ljau³¹							
结（果子）	pɪ⁵⁵		ti⁵⁵		pjei⁵⁵							
结婚											iɑ⁴⁴u⁴⁴	642
结巴	la³⁵		la³⁵		lau²²kuŋ²²							
绕（线团）	vẽ³¹		ljei²²tja³⁵		ȵtɕei³³							
给	tɕɦʉ⁴⁴; pɔ̃³⁵		tɕu⁴⁴		kuŋ³¹							
给...	tɕɦʉ⁴⁴; pɔ̃³⁵		tɕu³¹		kuŋ³¹							
绣（花）	tɦɤ⁴⁴		i⁵⁵na⁵³		juŋ³³							
绳子	tɦɤ³³l̥e⁵⁵		tei³³l̥ei⁵⁵		l̥je⁵⁵							
绸子	tɕɦʉ³³		tɕhu³³		ȵtɕu³³thai⁵³							
绿	mpjo³⁵		njo³⁵		mpjo³⁵		ljo³⁵	237				
绿豆	tɦʉ³¹mpjo³⁵		tu³¹taŋ³⁵		lu³⁵thei³¹							
编（筐）	qẽ³⁵		na⁵³		nta⁵³							
编（辫子）	qẽ³⁵		qeŋ³⁵		qɯŋ³⁵							
缝（衣）	jɦõ³³		joŋ³³		juŋ³³							
缰绳	tɦɤ³³l̥e⁵⁵mɦɪ³¹		tei³³l̥ei⁵⁵mi²²		l̥je⁵⁵ma²²							
缸	a⁴⁴vɛ̃³¹ɔ̃³⁵		a³³qou⁵³voŋ³⁵		uŋ³³aŋ³⁵							
缺（口）	kɦwɛ³¹		kwɛ³¹		kwai³¹							
罐子	a⁴⁴hʉ³⁵		qa⁴⁴hu³⁵		naŋ³⁵piŋ³³							
羊	he³⁵he³⁵		hei³⁵hei³⁵		juŋ³³		jhoŋ³³	236				
羊毛	pi³⁵he³⁵he³⁵		ti³⁵hei³⁵hei³⁵		pi³⁵juŋ³³							
羊粪	qa³¹he³⁵he³⁵		qa²²hei³⁵hei³⁵		qa¹³juŋ³³							
羊羔	tɔ̃³⁵he³⁵he³⁵		taŋ³⁵hei³⁵hei³⁵		taŋ³⁵ȵei³⁵juŋ³³							
美丽	o³¹		o²²tɕaŋ³⁵		wo¹³				wo²¹²	560		
群（一群羊）	mɦõ⁴⁴		moŋ⁴⁴		tɕuŋ³⁵							
羽毛	pi³⁵		ti³⁵		pi³⁵							
翅膀	qɛ⁵³te⁵³		qɛ⁵³tei⁵³		te⁵³							
翻（开）	mɛ̃³¹		mɛ²²		puŋ⁵⁵							
翻身	mɛ̃³¹		mɛ²²		mpai¹³							
老	qo⁵⁵		qo⁵⁵		qo⁵⁵							
老人	ŋ̩³¹pɤ⁵³qo⁵⁵; qo⁵⁵mɦjɛ³³		qo⁵⁵njɛ³³		qo⁵⁵nai³³		ko⁵⁵mai³³	236			ku²⁴lɛn⁴⁴	641
老山（地名）									pu³¹do³²⁵kou⁴⁵	561		
老师	tɕɔ̃³⁵sɤ³³; sẽ³³sẽ³³		saŋ³³seŋ⁵⁵		lau²²si⁵⁵							
老虎	ŋ̩³¹qa³⁵pɤ⁵³		qa²²pou⁵³		n̩²²ɴqai³³							
老鹰	ŋ̩³¹kwɤ³¹		ŋ̩²²kwei²²		n̩³³kwei¹³							
老鼠	ŋ̩³¹tɔ̃³⁵nɦẽ³¹		taŋ³⁵neŋ²²		taŋ³⁵nɯŋ²²							
耙	a⁴⁴pha³³		pa²²kɛ²²		tei³³pha³⁵		ka³³pha³³	237				
耙（地）	pha³⁵		pha³⁵		pha³⁵							
耙田											pɑ²¹³liŋ²¹³	642
耳垂	a⁴⁴pe³¹mpɦjo³³		tjei²²njo³³		pjei¹³mpjo³³							
耳垢	qa³¹qhõ³¹mpɦjo³³		qa²²khoŋ²²njo³³		qa¹³mpjo³³							
耳朵	a⁴⁴qhõ³¹mpɦjo³³		a³³khoŋ²²njo³³		naŋ³⁵mpjo³³		khəŋ³³mjho³³	236			lɑŋ⁴⁴by²¹³	642
耳环	a⁴⁴lɦja⁴⁴mpɦjo³³		qa²²lja⁵⁵		wi²²se⁵⁵							
耳穴	a⁴⁴qhõ³¹mpɦjo³³		qa²²njo³³		qhuŋ¹³mpjo³³							
聋	lɦõ³³		loŋ³³		luŋ³³							
聋子	lɦõ³³mpɦjo³³		hou³⁵loŋ³³		luŋ³³tsi¹³							
聪明	tɕhõ³³mɦĩ³¹		tai⁵⁵mu⁵⁵		tshuŋ⁵⁵mɯŋ³³							
肉	ɴqɦɛ³³		ŋɛ³³		ɴqai³³				qai⁴⁴	559	ŋae⁴⁴	642
肋骨	qa³¹sõ³¹tɪ⁵⁵ta⁵⁵		qa²²loŋ²²no²²nei⁵⁵		phau³⁵suŋ¹³kwe⁵⁵							
肌肉	ɴqɦɛ³³		ŋɛ³³		ɴqai³³							
肘	a⁴⁴qɔ̃⁵³sɤ³⁵		tɕɔ³⁵sei³⁵		tjuŋ⁵⁵ɕei³⁵							
肚子	a⁴⁴ŋ̥ŋ³¹		a³³ŋ̥ŋ²²		naŋ³⁵n̥n¹³							
肚脐	a⁴⁴tʉ³⁵qẽ³¹		a³³tu³⁵qei³¹		n̥n¹³ntau⁵³							
肛门	a⁴⁴tɕɦɔ̃³³qa³¹		a³³tɕaŋ³³qa²²		qhuŋ¹³qa¹³							
肝	a⁴⁴hĩ³⁵		a³³hjeŋ³⁵									
肥（肉）	tɕɦõ⁴⁴		tɕoŋ⁴⁴		tjuŋ³¹							
肥料	qa³¹; ji⁵⁵		ji⁵⁵		qa¹³							
肥沃	tɕɦõ⁴⁴		tɕoŋ⁴⁴		tjuŋ³¹							
肥皂	jɔ̃³¹tɕẽ⁵³		jaŋ³³tɕiŋ⁵³		ɕi¹³ɕu¹³ɕaŋ⁵⁵							
肥肉	ɴqɦɛ³³tɕɦõ⁴⁴		ŋɛ³³tɕɔŋ⁴⁴		ɴqai³³tjuŋ³¹							
肩胛骨	a⁴⁴lja³¹sɤ³⁵		a³³lja²²sai³⁵									
肩膀	a⁴⁴pja³⁵kɦo³¹		tja⁵⁵ko³¹		pi³⁵qo³³							
肺	a⁴⁴mpjɔ⁵⁵		a³³phɔ⁵⁵									
肾（腰子）	a⁴⁴tɕʉ³¹la³¹		a³³tɕu²²la³¹		pjei¹³la¹³							
肿	õ⁵⁵		oŋ⁵⁵		uŋ³⁵							
胃	a⁴⁴tɕhi³⁵		tɕhi³⁵qa²²		pjo¹³ȵtɕhei¹³							
胆（苦胆）	a⁴⁴tɕe³⁵		a³³tɕei³⁵jeŋ³⁵		tɕi³⁵iŋ³⁵							
背（一背菜）	e³⁵		e³⁵		tje³⁵							
背（柴）	e³⁵		e³⁵		tje³⁵							
背带	tɦɤ³³tɛ³⁵		taŋ³⁵pɔ³⁵		ljei⁵⁵pau³⁵							
背心	ɤ³¹pi³⁵		ou²²kwa³⁵		au¹³pi³⁵ta⁵⁵							
背诵	kɦʉ³¹		phei²²		phei²²							
胎儿	ɤ³¹		mi⁴⁴mu⁴⁴taŋ³⁵		thai⁵⁵							
胖	tɕɦõ⁴⁴		tɕoŋ⁴⁴		tjuŋ³¹							
胗（鸟类的胃)	pĩ³⁵qɛ³⁵		a³³tiŋ³⁵qɛ³⁵		piŋ³⁵qai³⁵							
胜利	ɕĩ³⁵li³⁵		seŋ³⁵li³⁵		ɕiŋ³⁵li³⁵							
胞衣	a⁴⁴pɤ⁵⁵ji⁵⁵		a³³pɔ⁵⁵ji⁵⁵		qai⁵³au¹³							
胡子	ȵɦi⁴⁴		ȵi⁴⁴		pi³⁵la⁵⁵							
胡椒	pe³¹kɦõ³¹		tjei²²tɕɛ³⁵		fu³⁵tɕhou⁵⁵							
胡琴	tɦɤ³³qo³¹qi³⁵		a³³qo²²qei⁵⁵		tei³³ȵtɕiŋ³³							
胡须											pi⁴⁴lɑ⁴⁴	641
胸脯	a⁴⁴tɕɔ̃⁵³		a³³tɕaŋ⁵³		naŋ³⁵tɕuŋ⁵³							
脂油（炼过的）	ɔ̃³⁵jɦɤ³³		jou³³		jou³³							
脆	ȵɦɪ³¹		ȵ̥ei³⁵		ntshei³⁵							
脏（衣）	pa³⁵lɛ⁵³		pɛ⁵³lɛ⁵³		lja³⁵kwa³⁵							
脐带	ŋ̥ŋ³¹lɔ⁵³		tai³³ŋ̥ŋ²²lɔ⁵³		n̥n¹³ntau⁵³							
脓	pɦɪ⁴⁴		pi⁴⁴		pi³¹							
脖子	a⁴⁴ŋɔ̃³¹		a³³ŋɔŋ²²		naŋ³⁵ɴquŋ¹³							
脚	tɦɤ³³lʉ³⁵		qa⁴⁴lu³⁵		haŋ³⁵		lu³³	236	tei⁴⁴xa³²⁵	558		
脚印	a⁴⁴mɪ³¹lʉ³⁵		a³³njei²²lu³⁵		mɯŋ¹³haŋ³⁵							
脚后跟	a⁴⁴qɔ̃⁵³lʉ³⁵		a³³qaŋ⁵³lu³⁵		ɕi²²haŋ³⁵							
脚掌	a⁴⁴mpa³⁵lʉ³⁵		a³³ma³⁵lu³⁵		mpa³⁵haŋ³⁵						lɑŋ⁴⁴xɑŋ²⁴	642
脚背	a⁴⁴so³⁵mpa³⁵lʉ³⁵		ma³⁵lu³⁵		khu³¹haŋ³⁵							
脚趾	qa³¹vi⁵⁵lʉ³⁵		qa³³va²²lu³⁵		ŋei³⁵haŋ³⁵							
脚趾甲	qa³¹vi⁵⁵lʉ³⁵		qa²²vi⁵⁵lu³⁵		qhau³⁵haŋ³⁵							
脚踝	a⁴⁴tɕɔ³⁵lʉ³⁵		tai³³haŋ³⁵lu³⁵		lo³³ŋai²²tɕu²²							
脱（衣）	qɛ³¹		qɛ²²		qai¹³							
脱（鞋）	khɤ⁵³		khou⁵³		qhou⁵³							
脸	a⁴⁴mɦʉ³¹		a³³moŋ³³		naŋ³⁵muŋ¹³				naŋ³²⁵moŋ²¹²	558		
脸盆	a⁴⁴pja³⁵ȵtɕʉ⁵⁵mɦi⁴⁴		tja³⁵sa⁵⁵		pu³³ntse¹³muŋ¹³							
腊肉	ɴqɦɛ³³lɦa⁴⁴		ŋɛ³³qhei²²		ɴqai³³la³¹							
腋下	a⁴⁴qɔ̃³⁵tɕa⁵⁵		qɔŋ³⁵tɕa⁵⁵		khɯŋ⁵⁵tɕa⁵⁵							
腮帮子	a⁴⁴pjɛ̃⁵⁵mɦʉ³¹		hɛ²²pha³³		pjei¹³ka⁵³							
腰	a⁴⁴la³¹		a³³la²²		naŋ³⁵la¹³							
腰带	tɦɤ³³l̥e⁵⁵tɦɔ̃³¹		l̥ei⁵⁵taŋ³³		l̥je⁵⁵taŋ²²							
腻	mɪ⁵³		mei⁵³									
腿肚子	a⁴⁴pẽ³⁵lʉ³⁵		mɛ⁵³njo²²lu³⁵		pjei¹³haŋ³⁵							
膀胱	jo³¹ɔ̃³⁵ve³¹		phɔ⁵³aŋ³⁵vei²²		naŋ³⁵jo²²aŋ³⁵ŋkwe³³							
膝盖	a⁴⁴qɦɔ³¹tɕɦi⁴⁴		pɔ³⁵tɕi⁴⁴		khɯŋ⁵⁵tɕi³¹							
膨胀	tɕõ⁵⁵		oŋ⁵⁵		uŋ⁵⁵							
自己	a⁴⁴tɕo³¹		a³³tɕo³¹		a³⁵tɕo¹³							
臭（鱼）	tɕɔ⁵⁵qɤ⁵⁵		tɕɔ⁵⁵qai⁵⁵		tɕau⁵⁵							
臭虫	ŋ̩³¹pi⁵⁵		ti⁵⁵		ɕu³⁵tɕhuŋ³⁵							
臼牙	m̥ɪ³¹mpe⁵⁵		ȵ̥i²²mi⁵⁵		m̥iŋ¹³mpe⁵⁵							
舀（汤）	fɤ⁵³		tɕu⁵⁵		tju⁵⁵							
舂（米）	to³¹		to²²		to¹³							
舅母	a⁴⁴nto³¹		a²²no³³		n̥uŋ²²wo¹³		nɔ³¹	236				
舅父	a⁴⁴nɦʉ³¹		a²²moŋ²²		n̥uŋ²²		nu³¹	236				
舌头	mpɦɪ³¹		tai³³njei³¹		tei³³nthei³¹							
舌尖	mjɔ³¹		njɔ²²nei³³		mphjau³¹nthei³¹							
舌根	a⁴⁴tɕɤ⁵³mpɦɪ³¹		a³³tɕi³⁵njei³¹		ɕi¹³nthei³¹							
舔	lɦe³¹		ljɛ³¹		l̥jei³¹							
船	tɦɤ³³ŋɦo³³		ŋoŋ³³		ɴquŋ³³							
船桨	a⁴⁴lja³¹ŋɦo³³		lja²²ŋoŋ³³		jou³³pai¹³							
芋头	vɦɔ⁴⁴		qa²²vɔ⁴⁴		wau³¹							
芝麻	ɕʉ⁵⁵		hju⁵⁵									
芥菜	ji³⁵kɦwɔ³¹		ji³⁵kwaŋ²²									
芫荽	ji³⁵qa³¹vi⁵⁵		jaŋ³³si⁵⁵									
花	pɦɤ³³		pei³³sɔ³³		pei³³				xou³²⁵pei⁴⁴	558		
花（布）	pɦɤ³³		hwa³⁵		pei³³							
花椒	pe³¹tɕɛ³⁵		tjei²²ljaŋ²²si⁵³		pjei¹³tjei³⁵							
花瓣	khĩ³¹pɦɤ³³		pei³³qa³¹qɛ⁵³									
花生	tɦʉ³¹qa³¹lɦe³³		tu³¹qa²²lei³³		lo³⁵hwa⁵⁵sɯŋ⁵⁵							
花蕊	a⁴⁴sẽ⁵⁵pɦɤ³³		seŋ⁵⁵pei³³									
芽	a⁴⁴ŋa³⁵		m̥aŋ³⁵ȵoŋ⁵⁵		ȵuŋ⁵⁵							
苍蝇	mɦa³¹se⁵³		ma²²sei⁵³		n̩²²je⁵³							
苎麻	mpɦjo⁴⁴		njo⁴⁴		nto³¹							
苦	jẽ³⁵		jeŋ³⁵		iŋ³⁵				iŋ³	560		
苦瓜	pe³¹jẽ³⁵		tjei²²jeŋ³⁵		pjei¹³iŋ³⁵							
茄子	pe³¹tɕɪ⁵⁵		tjei²²tɕei⁵⁵		pjei¹³tsei⁵⁵				xou³²⁵pie²¹²tsuei⁴⁵	558		
茅坳（地名）									qeŋ⁴⁵kao²¹²	561		
茅草	qa⁴⁴ŋɛ³⁵		qa⁴⁴ŋɛ³⁵		qa³⁵nuŋ³³							
茶	tɕɦi³¹		tɕi²²		tɕi²²							
茶树	pja³⁵tɕɦi³¹		tja³⁵tɕi²²		tsa³⁵tɕi²²							
草	so³¹		so²²		so¹³				xou³²⁵so²¹²	558		
草墩	a⁴⁴tho⁵³qa³¹ȵ̥tɕɔ³⁵		a³³thou⁵³ka³¹ȵ̥ɔ³⁵		naŋ³⁵tho³⁵ntshau³⁵							
草帽	a⁴⁴kʉ⁵³mpɦɔ³³jɦi³³		a³³ku⁵³ka²²ȵ̥a³⁵		tshau¹³mpau⁵³							
草房	a⁴⁴pjo³¹qa³¹n̥ɔ³⁵		a³³phoŋ³³tjo²²		pjo¹³ntshau³⁵							
草棚	a⁴⁴pjo³¹qa³¹n̥ɔ³⁵		a³³phoŋ³³tjo²²		pjo¹³ntshau³⁵							
草鞋	ŋkʉ⁵⁵		ŋu⁵⁵		naŋ³⁵ŋku⁵⁵				naŋ³²⁵gu⁴⁵	559		
荞麦	ɪ̃⁵³ȵ̥tɕɤ⁵⁵		e⁵³hjou⁵⁵		ȵtɕhou⁵⁵qei³⁵							
药	ȵtɕa³⁵		ȵa³⁵		ȵtɕa³⁵							
菌子	ɴqo³⁵		ŋou³⁵		ɴqo³⁵sa⁵⁵							
菜									i³²⁵	559		
菜（饭菜）	ji³⁵		ji³⁵seŋ²²		wi³⁵							
菜刀	tɔ³⁵ji³⁵		tɔ³⁵ji³⁵		tau³⁵wi³⁵							
菜园	a⁴⁴he⁵⁵		a³³he⁵⁵		naŋ³⁵hje⁵⁵							
菜板	a⁴⁴tho³¹ji³⁵		a³³thou⁵³thi³⁵ji³⁵		naŋ³⁵tɕuŋ¹³ɴqai³³							
菩萨	ŋ̩³¹mpjɤ⁵³		neŋ²²njou²²		n̩²²kwei³⁵							
萝卜									pei²²pʰao²²	558		
萤火虫	pɪ⁵⁵pɔ⁵⁵		tiŋ⁴⁴pɔ⁵⁵		qei³⁵tsɯŋ³⁵							
落（太阳）	ntɔ³¹		nɔ²²		haŋ⁵⁵							
葡萄	pe³¹ɪ̃³¹		tjei²²jeŋ²²									
葫芦	pe³¹mpɦo³³		tjei²²mo³³		pjei¹³mpo³³							
蒸	tɕɔ̃³⁵		tɕaŋ³⁵		tɕaŋ³⁵							
蓑衣	sɪ³⁵		si³⁵		qai⁵³si³⁵							
蓑衣针	tɦɤ³³kɔ̃³⁵jɦõ³³sɪ³⁵		kaŋ³⁵joŋ³³si³⁵		kuŋ³⁵si³⁵							
蓝	mpjo³⁵		njo³⁵		mpjo³⁵				pʰo²¹²⁵	560		
蓝靛草	ɴqɦɤ³³		ŋai³³		ɴqei³³							
蔬菜	ji³⁵		ji³⁵		wi³⁵							
蕨草			pei³³i³³nou³³		i³⁵ntou³³							
薄	ȵɦɪ³¹		ȵi²²		n̩²²		ȵi³³	237				
藏（东西）	tɕɦɔ̃⁴⁴		ɛ⁵³		ai⁵³							
藤子	m̥a³⁵		m̥a³⁵		tei³³m̥a³⁵							
虎							ŋə³³po³³	236				
虎口	a⁴⁴qha³⁵va³¹		qa⁴⁴qha³⁵pu²²		qhai⁵³ŋkwa¹³							
虎形山（地名）									pu³¹noŋ⁴⁴	561		
虫									ŋ²²qei³²⁵	558		
虫（总称）	qɤ³⁵		qai³⁵		n̩²²qei³⁵							
虮子	qo⁵⁵nɔ̃³¹		qo⁵⁵naŋ²²		qo⁵⁵ntaŋ¹³							
虱子	ŋ̩³¹nɔ̃³¹		naŋ²²		ntaŋ¹³							
虹	ŋ̩³¹jɦõ³³		joŋ³³		n̩²²juŋ³³							
虾	fa⁵⁵kõ⁵⁵		qai³⁵koŋ⁵⁵									
蚂蚁	qa³¹mpe³¹		qa²²n̥ei²²		n̩²²mphjei¹³				ŋ²²pʰie²¹²	558		
蚊子	mɦa³¹jõ³¹		ma²²joŋ²²		ma²²juŋ¹³							
蚊帐	a⁴⁴tɕɔ³⁵pɔ³⁵		a³³tɕɔ³⁵pɔ³⁵		tɕuŋ³⁵tsi¹³							
蚌	ŋ̩³¹pe³¹pjɛ̃³¹		qo⁵⁵lou³⁵thjɛ²²		pjei¹³sei⁵³							
蚕			qei³⁵jaŋ³³si⁵³		qei³⁵si⁵⁵							
蚯蚓	qɤ³⁵jõ³⁵		qa²²joŋ³⁵		qei³⁵tɕuŋ³⁵							
蚱蜢	qa³¹jɔ⁵³		qa²²jɔ⁵⁵thi³¹		jau⁵³							
蛆	qɤ³⁵lõ⁵³		qai³⁵loŋ⁵³		qei³⁵qa¹³							
蛇	ŋ̩³¹nẽ³⁵		neŋ³⁵		n̩²²nɯŋ³⁵				ŋ²²le³²⁵	558		
蛇穴	a⁴⁴ȵ̥tɕo³¹nẽ³⁵		a³³ȵ̥o²²neŋ³⁵		lo²²nɯŋ³⁵							
蛇蜕	qa³¹ljʉ⁵⁵nẽ³⁵		qa²²lju⁵⁵neŋ³⁵		qhau³⁵nɯŋ³⁵							
蛋	qo⁵⁵		qo⁵⁵		qo⁵⁵							
蛋壳	qa³¹qhɔ³⁵qo⁵⁵		qa²²qhɔ³⁵qo⁵⁵		qhau³⁵qo⁵⁵							
蛋白	qo⁵⁵kwɔ³⁵		qo⁵⁵kɔ³⁵		ljaŋ³⁵kwau³⁵							
蛋黄	qo⁵⁵kɦwɤ³³		qo⁵⁵kwei³³		ljaŋ³⁵kwei³³							
蛔虫	qɤ³⁵jõ³⁵		qa²²joŋ³⁵		qei³⁵tɕuŋ³⁵							
蛞蝓（鼻涕虫)	ŋ̩³¹mpjɛ³¹		qai³⁵njɛ²²		qei³⁵mje¹³							
蜂蜜	mpɦɪ³³qa³⁵mpɦjo³¹		ma²²njei³³		mpjei³³ma²²m̩¹³							
蜇	pẽ³¹		ti²²		tse²²							
蜈蚣	ŋ̩³¹qɤ³⁵jɦĩ³³		hju⁵³		ju³³kuŋ⁵⁵tsha⁵⁵							
蜗牛	ŋ̩³¹mpɦɛ³¹		qei³⁵njɛ²²		sai⁵⁵ntjei³³lo³⁵							
蜘蛛	qa³¹ji⁵⁵		qa²²ji⁵⁵		qei³⁵wi³¹							
蜘蛛网	a⁴⁴pjo³¹qa³¹ji⁵⁵		a³³ȵ̥o²²qa²²ji⁵⁵		nuŋ²²wi³¹							
蜜蜂	mɦa³¹mpɦe³³		ma²²nei³³		ma²²m̩¹³							
蜡烛	la³⁵tɕʉ⁵⁵		ti⁵⁵la³⁵		la⁵⁵tɕu⁵⁵							
蜣螂	qɤ³⁵qhɔ³⁵ljõ³¹qa³¹		qai³⁵ljoŋ²²qa²²		qei³⁵qa¹³							
蜻蜓	kwɤ³¹vɦɔ̃³³		qa²²tɕi⁵⁵jɔ³³		mphje³¹jaŋ³⁵							
蝉	ljɔ̃⁴⁴ljɔ̃⁴⁴ŋ̩ɦ³³		qa²²l̥ja⁵⁵leŋ³³		n̩²²lje²²pei³³							
蝌蚪	tɔ̃³⁵võ³¹		taŋ³⁵voŋ²²		taŋ³⁵mɯŋ¹³							
蝙蝠	pa⁵³tɕĩ⁵³		qa⁵³tɕi⁵³		jei³³lau³³ɕu¹³							
蝴蝶	qa³¹li⁵⁵ljɔ³¹		qa²²li⁵⁵ljɔ²²		mpei⁵⁵							
螃蟹	ŋ̩³¹ȵtɕi³⁵		neŋ²²ȵi³⁵		n̩³³nti³⁵							
融化	jɦe³³		jei³³		jei³³							
螳螂	ŋ̩³¹khɔ̃⁵⁵ŋɔ̃⁵⁵		qa²²ljaŋ⁴⁴pa³³		kaŋ³³tɕo³³							
螺蛳	tɕhẽ³¹lɦo³³		qo⁵⁵lou³⁵		sai⁵⁵ntjei³³lo³⁵							
螺蟀	pɤ⁵³tɕo³⁵		qa²²jɔ⁵⁵sa³¹									
血	ȵ̥tɕe³¹		ȵ̥ei²²		ȵtɕhei¹³							
血管	ȵ̥tɕe³¹qa³¹si³¹		qa²²si²²ȵ̥ei²²		tei³³ɕi¹³ȵtɕhei¹³							
衣							ə³¹	237			kɑu⁴⁴	642
衣服	ɤ³¹		qɛ⁵³ou²²		qai⁵³au¹³				kai⁵²ao²¹²	559		
衣袋	n̥e³⁵pɪ̃³⁵		a³³n̥ei³⁵tiŋ³⁵		n̥ɯŋ³⁵							
补（衣）	mpa³¹		ma²²		mpa³¹							
衰老	qo⁵⁵		qo⁵⁵		qo⁵⁵							
袖子	tɦɤ³³sɤ³⁵ɤ³¹		qa⁴⁴sei³⁵ou²²		mphau³¹au¹³							
袜子	va³⁵		va³⁵		wa⁵⁵tsi¹³							
被	tɕɦʉ⁴⁴		tɕu³¹		tɕho³⁵							
被子	pɔ³⁵		pɔ³⁵		qai⁵³pau³⁵		kə³³ɔ³³	237			kʌ⁴⁴	642
被面子	a⁴⁴thõ³¹pɔ³⁵		a³³thoŋ²²pɔ³⁵									
裁（衣）	tɛ⁵³		tɛ⁵³		ȵtɕe¹³							
裂（开）	ȵa³¹				ntja¹³							
装（袋子）	tɕɔ̃⁵⁵		tɕaŋ⁵⁵		kha³¹							
裙											khɑ⁴⁴tɑŋ²⁴	642
裙子	tɦɤ³³tẽ³⁵		teŋ³⁵		khwɯŋ¹³				qai⁵²teŋ³²⁵	559		
裤							ã³¹khu¹¹	237			lɑŋ⁴⁴khɑu⁴⁴	642
裤子	a⁴⁴hɔ³¹		a³³hɔ²²		naŋ³⁵ŋkhau¹³				naŋ³²⁵kʰao²¹³	559		
裤带	l̥e⁵⁵hɔ³¹		l̥ei⁵⁵hɔ²²		l̥je⁵⁵ŋkhau¹³							
裤裆	tɦʉ⁴⁴hɔ³¹		a³³thu⁵³hɔ²²		thu¹³ŋkhau¹³							
裹腿	ȵ̥ɔ̃³⁵		ȵ̥aŋ³⁵		naŋ³⁵nthjuŋ³⁵							
西	si⁵⁵		ɕi³³		ɕi⁵⁵		ɕi⁵⁵	236				
要	ja³¹		ja²²		ja¹³				ia²¹²	559		
角	tɦɤ³³qɔ̃³⁵		qaŋ³⁵		qaŋ³⁵							
角落	tɦɤ³³qɔ̃³⁵		a³³qaŋ³⁵		qo⁵⁵							
解（结子）	ko⁵⁵		ŋou³³		ŋku⁵³							
认识	ȵtɕa⁵⁵		ȵa⁵⁵		ȵtɕa⁵⁵							
记得	tɕe⁵³		tɕei⁵³		tɕei⁵³							
语言	kɦõ⁴⁴		koŋ⁴⁴		kwɯŋ³¹							
说	kɔ̃³¹		kaŋ²²		kuŋ¹³				koŋ²¹²	559		
请（客）	sɛ̃³⁵		tɕheŋ²²		ɴqou³⁵							
读	thʉ⁵⁵		thu⁵⁵		thu⁵⁵							
谁	ti⁴⁴lɦɛ̃³³		ti³¹lɛ³³		ti³⁵nai³³				ti²²⁵	560		
调羹	a⁴⁴pjɔ³¹kĩ³³		a³³la⁵³a⁵³									
谜语	khʉ³¹ȵe⁴⁴		ku²²ȵɛ⁴⁴		mɯŋ⁵³tsi¹³							
谢谢											dʑie⁴⁴tə⁴⁴mɑ²¹³	642
谷											pei³³	642
谷粒	a⁴⁴pɦɤ³¹		e⁵³pei²²		naŋ³⁵pei²²							
豆子	tɦʉ³¹		tu³¹		thu³¹							
豆腐	hɤ⁵³		hou⁵³		hou⁵³							
豆芽菜	tɦʉ³¹ŋa³⁵		tu³¹ŋa³⁵									
豇豆	tɦʉ³¹pɔ⁵⁵		tu³¹ji³⁵		thu³¹tjau³¹							
象	ŋ̩³¹ɕɔ³⁵				n̩²²ɕuŋ⁵³							
豹子	ŋ̩³¹qa³¹pɔ⁵⁵				pau³⁵tsi¹³							
豺狗	ljɔ̃⁵³lɦĩ³³		qa²²ljaŋ⁵³jaŋ²²		ja³³kei¹³							
贴	le³⁵		li³⁵		pei³⁵							
贵（价钱贵）	kwi⁵⁵		kwi⁵⁵		kwi⁵⁵							
赌	thʉ³¹		tu²²		tu¹³							
赔（钱）	pɦɔ³³		pɔ³³		phei³⁵							
赢	sɛ̃⁵³				jaŋ³¹							
赤（脚）	qhõ³⁵		qhoŋ³⁵		ŋkwɯŋ²²							
走	tɕɦa⁴⁴		tɕa⁴⁴		thau³¹				nie⁴⁴	559		
赶（牛）	jɦʉ³¹; vɦɤ⁴⁴		ju³¹		kjei³⁵							
起											ɕiəu²¹³	642
趴	mɔ̃⁵⁵		maŋ⁵⁵		pha¹³							
跌（交）	ntɔ³¹		nɔ²²		tɕha¹³							
跑	tɦɔ³¹		tɔ²²		thau³¹							
跛子	lɦja³³lʉ³⁵		qhaŋ⁵³lou³⁵		pai¹³tsi¹³							
跨	tɕɦẽ³³		tɕa³³aŋ³⁵		ka³³							
跪	khwi³¹		tɕhɛ²²		khwi¹³							
路	qo³¹		qo²²		qo¹³						te⁴⁴	642
跳	tɕɦɔ⁴⁴		tjaŋ⁵³		tɕhou³⁵							
跳蚤	ŋ̩³¹ljɔ̃⁵³		ŋ̥ŋ³⁵ljaŋ⁵³		m̩³⁵qo¹³							
踢	tɕɔ⁵³		tɕɔ⁵³		tɕha³⁵							
踢（马踢）	tɕɔ⁵³		tɕɔ⁵³		tɕha³⁵							
踩	tɦɪ³¹		ti³¹		thi³¹				tʰi³¹	559		
蹄	pɦɔ³³lʉ³⁵		pou³³lu³⁵		tsau¹³							
蹲	jõ⁵⁵		joŋ⁵⁵		jau¹³							
身体	a⁴⁴tɔ̃³¹		a³³taŋ²²		nti²²taŋ²²							
躲	ɛ⁵³		ɛ⁵³		ai⁵³							
车子	a⁴⁴tɕhe³³		a³³tɕhe³³		tɕhe⁵⁵							
轮子	a⁴⁴ntɔ³¹tɕhe³³		qa⁴⁴ljoŋ²²tɕhe³³		naŋ³⁵phai³⁵							
软	mɦɪ⁴⁴		mi⁴⁴		me³¹				bʰei³²⁵	560		
软蛋	qo⁵⁵mi⁵⁵		qo⁵⁵mi⁵⁵		qo⁵⁵jei²²							
轻	fɤ³⁵		hwei³⁵		hwei³⁵							
轿子	a⁴⁴tɕhɤ⁵³		a³³tɕhou⁵³		tɕhou⁵³							
辈子（一辈子）	phɛ³⁵		thɛ⁵³		thɛ⁵³							
输	se³⁵		su³³		ɕi⁵⁵							
辣	mpɦɪ³¹		ni³¹		mphje³¹				pʰie³¹	560		
辣椒	qa³⁵tɕɤ⁵⁵		qa⁴⁴tɕou⁵⁵		pjei¹³tai³¹							
辫子	tɦɤ³³qɔ̃³⁵pi³⁵		qa³³ti³⁵		l̥je³⁵pi³⁵							
过（河）	kwa⁵⁵		kwa⁵⁵		kwa⁵⁵							
过（生日）	kwa⁵⁵		kwa⁵⁵		kwa⁵⁵							
过年	kwa⁵⁵tɕɪ̃³⁵		kwa⁵⁵tɕaŋ⁵⁵		kwa⁵⁵tɕiŋ³⁵							
近	jo⁵⁵		jo⁵⁵		jo⁵⁵				io⁴⁵	560		
还	hã³⁵		a³³tɕoŋ³³		ha³⁵				pao⁴⁴	559		
还（东西）	hã³⁵		pɔ³³		pau³³							
还（钱）	hã³⁵		pɔ³³		pau³³							
这	ŋ̩³¹		ŋ̩²²		ne¹³				nie²²	560		
这个月	pɦe³¹l̥a⁵⁵		ŋ̩²²tei³³l̥a⁵⁵		ne¹³l̥a⁵⁵to³⁵							
这些	ŋ̩³¹tɕe³⁵; ŋ̩³¹ȵɦo³¹		ŋ̩²²tɕe³⁵		ne¹³tɕe³⁵							
这样	ɪ̃⁵⁵n̥e³¹; ŋ̩³¹ȵ̥tɕe⁵³		i⁵⁵ȵ̥ei⁵³		n̥e¹³kha³¹							
这种			ŋ̩²²ȵoŋ³⁵		ne¹³tɕuŋ¹³							
这边	ŋ̩³¹ȵ̥tɕe⁵³		ŋ̩²²ȵ̥ei⁵³		ne¹³ȵtɕhei⁵³							
这里	ŋ̩³¹ȵa³⁵; ŋ̩³¹tɛ⁵⁵		ŋ̩²²nei³⁵		ne¹³tho³⁵				nie²²tʰo³²⁵	560		
进	pɦʉ⁴⁴		pu⁴⁴		pu³¹							
远	ko³⁵		ko³⁵		ko³⁵				ko³²⁵	560		
连接	tɔ⁵⁵		tɔ⁵⁵		sje⁵³							
迟（到）	lɦe⁴⁴		ȵɛ⁵⁵		ɴqou⁵³							
追	jɦʉ³¹		ju³¹		kjei³⁵							
送（东西	sõ⁵⁵		soŋ⁵⁵		suŋ⁵⁵							
逃走	tɦɔ³³		tɔ³¹		thau³¹							
选（种）	vɪ³¹		vi²²		ŋkwi²²							
逗（小孩）	tɤ³⁵		tou³⁵		tai³¹							
逼	pɦi³¹		ŋa³¹		pi¹³							
遍（念一遍）	phɛ³⁵		vei³³		phjei⁵⁵							
道士	ŋ̩³¹sɔ̃⁴⁴hʉ³⁵				thau⁵³si⁵⁵							
遗失	lɦɛ³³		lɛ³³		ljuŋ¹³				lai⁴⁴	559		
遮（挡）	tɕɤ³⁵		tɕou³⁵		paŋ³³							
那	ŋ̩⁵⁵		ŋ̩⁵⁵		wo⁵⁵							
那（更远）									dao²²wo⁴⁵	560		
那（较远）									wo⁴⁵	560		
那（近距离）									m⁴⁵	560		
那些	ŋ̩⁵⁵tɕe³⁵; ŋ̩⁵⁵ȵɦo³¹		ŋ̩⁵⁵tɕe³⁵		wo⁵⁵tɕe³⁵							
那样	ɪ̃⁵⁵hẽ⁵³; ɪ̃⁵⁵ȵ̥tɕe⁵³		i⁵⁵n̥ei⁵⁵		ti⁵³kha³¹							
那种			ŋ̩⁵⁵ȵoŋ³⁵		wo⁵⁵tɕuŋ¹³							
那边	ŋ̩⁵⁵ȵ̥tɕe⁵³		ŋ̩⁵⁵ȵ̥ei⁵³		wo⁵⁵ȵtɕhei⁵³							
那里	ŋ̩⁵⁵ȵa³⁵; ŋ̩⁵⁵tɛ⁵⁵		ŋ̩⁵⁵ȵa³⁵		wo⁵⁵tho³⁵							
都	tɦɔ³³		tɔ³³		kjei⁵⁵							
酒	tɕɤ³¹		tɕou²²		tɕou¹³						tɕiəu⁴⁴	642
酒窝	a⁴⁴tɕẽ⁵⁵tɕɤ³¹		a³³tɕɛ⁵⁵tɕou²²		tjei⁵⁵tɕou¹³							
酸	sʉ³⁵		su³⁵		ɕu³⁵							
酽（茶）	ɴqɦa³¹		tɕoŋ²²		tɕuŋ²²							
醋			aŋ³⁵su⁵⁵		tshu³⁵							
醒（睡醒）	so³⁵		so³⁵		ɕaŋ¹³							
醒（酒醒）	kwa⁵⁵		soŋ³⁵		ɕaŋ¹³							
里面	a⁴⁴qɔ³¹		qɔ²²tjo²²		o⁵⁵qhou³¹							
重	ȵ̥a³¹		ȵ̥a²²		n̥a¹³							
野兽	hɤ³⁵qɤ³⁵jɔ̃³¹		hou³⁵ka⁴⁴jaŋ²²		ja²²hou³⁵							
野猪	ŋ̩³¹to³⁵		to³⁵		to³⁵							
野猫	ŋ̩³¹tɕɔ̃³¹		tɕaŋ²²mɔ³⁵		mpau³⁵tjuŋ¹³							
野鸭	a⁵³ɔ̃³⁵		a⁵³aŋ³⁵		a⁵³aŋ³⁵							
量（布）	jo³¹		jo³¹		nthjei³⁵							
金子	tɕĩ³⁵tɕɦi³¹		tɕiŋ³⁵		tɕiŋ³⁵							
针	kɔ̃³⁵		kaŋ³⁵		kuŋ³⁵							
钉（扣子）	jɦõ³³		joŋ³³		juŋ³³							
钉子	a⁴⁴ȵi⁵⁵		qa²²ȵi⁵⁵		naŋ³⁵tjaŋ⁵⁵							
钓（鱼）	tɕɔ⁵⁵		tɕou³⁵		tɕou³⁵							
钓线	mpo³¹sẽ⁵⁵tɦɤ³⁵		mo²²seŋ⁵⁵tɕou³⁵		mpo¹³ɴqau³⁵tɕou³⁵							
钝（刀）	kõ⁵³		koŋ⁵³		lɯŋ³⁵							
钟（敲钟）	a⁴⁴tɕõ³³		a³³pɛ⁴⁴ma²²la³³		tɕuŋ⁵⁵							
钢	tɕo³⁵		tɕu³⁵		tso³⁵							
钢笔	kɔ̃³³pi³¹		ti⁵³nɔ³¹		kaŋ⁵⁵pi³⁵							
钥匙	a⁴⁴lja³¹sɪ³⁵		a³³lja²²si³⁵		so¹³si³⁵							
钱	a⁴⁴tɕɦĩ³³		a³³tɕaŋ³³		tɕiŋ³³							
钱（一钱）	tɕɦĩ³³		tɕiŋ³³		tɕiŋ³³							
钳子	pa³¹ŋkɛ⁵³		taŋ³⁵ŋɛ⁵³		tei³³ɴqai⁵³							
钹	a⁴⁴khwɛ̃³¹		a³³toŋ³³tɕhe³¹		po³⁵tsi¹³							
钻（洞）	sɔ̃⁵³		li³¹		tuŋ³¹							
钻子	tɦɤ³³lɦi³¹		tei³³li²²		tuŋ³¹tsai³⁵							
铁	l̥ʉ⁵⁵		l̥u⁵⁵		l̥u⁵⁵				xou³²⁵tlu⁴⁵	558		
铁匠	sɔ̃⁴⁴l̥ʉ⁵⁵		saŋ⁴⁴noŋ⁵⁵l̥u⁵⁵		qhe⁵⁵ntuŋ⁵⁵							
铁锅	a⁴⁴vɦẽ³¹l̥ʉ⁵⁵		a³³veŋ²²l̥u⁵⁵		naŋ³⁵wuŋ²²l̥u⁵⁵							
铃	a⁴⁴khwõ³³lɦjɔ̃³³				ljaŋ³⁵me²²							
铅	qhe³¹		qhei²²		wjei³³							
铅笔	pi⁵⁵qhe³¹		ti⁵³qhei²²		wjei³³pi³⁵							
铜	tɦɔ̃³³		taŋ³³		tuŋ³³							
铜锅	a⁴⁴vɦẽ³¹tɦɔ̃³³		a³³veŋ²²taŋ³³		naŋ³⁵wuŋ²²tuŋ³³							
铲（菜）	sɛ̃³¹		sɛ²²		qau⁵³							
铲子	a⁴⁴lja³¹qa³¹lɦe³³		a³³lja²²		tei³³tshai¹³							
银子	ŋ̩ɦ³³tɕɦi³¹		jiŋ³³		n̩³³							
银行	jĩ³¹hɔ̃³¹		jiŋ²²haŋ²²		iŋ¹³haŋ¹³							
铺（床）	m̥pe⁵⁵		mi⁵⁵		mphe⁵⁵							
锁	a⁴⁴so³¹		a³³so²²si³⁵		naŋ³⁵so¹³							
锄头	sɛ³⁵		pa²²sɛ³⁵		tei³³sai³⁵							
锅	a⁴⁴vɦẽ³¹		a³³veŋ²²		naŋ³⁵wɯŋ²²						uən²¹³	641
锅巴	qa³¹kẽ⁵⁵		qa²²qeŋ⁵⁵		qɯŋ⁵⁵							
锅烟子	qa³¹mʉ³¹vɦe³¹		qa²²mu²²qaŋ²²		lu²²wɯŋ²²							
锅铲	a⁴⁴lja³¹l̥ʉ⁵⁵		a³³lja²²l̥u⁵⁵		naŋ³⁵l̥ja¹³							
锉子	tɦɤ³³tha⁵⁵		tei³³tha⁵⁵		tei³³ntau³³							
错误	so³⁵fʉ³⁵		so³⁵		tsho³⁵u³⁵							
锡	jɦɛ̃³³		jɛ³³		ɕu⁵³							
锣	a⁴⁴lɦa³³		a³³ma³³la³³		lo³³							
锤子	a⁴⁴pɦɔ̃³¹jɦɤ³³		a³³paŋ²²tja³⁵		phaŋ³¹tsai³⁵							
锥子	tɦɤ³³tɕhɛ⁵³		tei³³tɕhɛ⁵³		tei³³tsai³⁵							
锯子	tɦɤ³³ki⁵⁵		tei³³ki⁵⁵		tei³³ki⁵⁵							
镜子	tɦɤ³⁵mjɛ⁵³		qɛ⁵³tɕɔ³⁵nɛ⁵³		tɕou³⁵tsi¹³							
镰刀	mpa⁵³		pa²²ma⁵³		mpa⁵³ljei³³							
长	to³¹		to²²		to¹³				to²¹²	560		
长（大）	ȵɦɔ̃³¹		tɕaŋ³³		tjuŋ²²							
长矛	tɦɤ³³pja³¹pjɤ⁵⁵		qa³³tɕhaŋ³⁵tja³⁵		mpjou²²tsi¹³							
长辈	phɛ³⁵qa³¹l̥jo³⁵		phɛ³⁵qo⁵⁵njɛ³³		l̥jo³⁵i¹³pai⁵⁵							
门	a⁴⁴tɕɦɔ̃³³		a³³tɕaŋ³³		tjuŋ³³				naŋ³²⁵tioŋ⁴⁴	559		
门槛	tɦɤ³³sɛ̃⁵⁵tɕɦɔ̃³³		qɛ⁵³pei³¹tɕaŋ³³		phai⁵⁵tjuŋ³³							
门牙	a⁴⁴tɕɦɔ̃³³m̥ɪ³¹		a³³tɕaŋ³³ȵ̥i²²									
门闩	a⁴⁴sɛ̃⁵⁵tɕɦɔ̃³³		a³³sɛ⁵⁵tɕaŋ³³		sai⁵⁵tjuŋ³³							
闪电	jẽ³¹mpo³⁵		jɛ⁵³mo³⁵		tou²²mpo³⁵							
问	nɦɪ̃⁴⁴		nei⁴⁴		ne³¹				ne³¹	559		
间（一间房）	kɛ̃⁵⁵		tɕo⁵⁵		tso⁵⁵							
闻（嗔）	m̥i⁵⁵		ȵ̥i⁵⁵		m̥iŋ⁵⁵							
阉（鸡）	phi⁵⁵		thi⁵⁵		phi⁵⁵							
阴（天）	põ⁵³		ɔ³⁵		iŋ⁵⁵							
陡	tɤ³¹; ȵa⁵³		tou²²		tou¹³							
集中	tɕi³¹tɕõ³³		tɕi³¹tɕoŋ³³		tɕi³⁵tɕuŋ⁵⁵							
集市（街子）	kɛ⁵⁵sɔ̃⁵³		kɛ⁵⁵		ȵtɕuŋ³³							
雉（野鸡）	ŋ̩³¹qa³¹tɕɤ⁵⁵		qa²²tɕou⁵⁵		tou⁵⁵							
雕刻	qo³⁵		qo³⁵		tjou⁵⁵							
雨	ɔ̃³⁵mõ⁴⁴		aŋ³⁵moŋ⁴⁴		nuŋ³¹		ã³³mo⁵⁵	235				
雨伞	sã⁵⁵		pa²²saŋ⁵⁵		pa¹³sa⁵⁵							
雪	ntɔ³¹mɔ̃⁵⁵		maŋ⁵⁵		mpaŋ⁵⁵							
零	ta³¹		ta²²		lɯŋ³³				neŋ⁴⁴	560		
零乱	ȵ̥tɕo³¹		ȵ̥ɔ²²		ntshai¹³							
雷	mpo³⁵		mo³⁵		mpo³⁵		ã³³mo³³	235				
雹子	ɕa³¹		hja²²		mpaŋ⁵⁵ɦja²²							
雾	ɔ̃³⁵ho³⁵pɤ⁵⁵pɦẽ⁵⁵		ɔ̃³⁵		u⁵³ho³⁵		ã³³tɔ³³	235				
霜	nto⁵⁵		lja⁵⁵no⁵⁵		nto⁵⁵							
露水	ɔ̃³⁵lɦʉ⁴⁴		aŋ³⁵lo⁴⁴		aŋ³⁵lu³¹							
青	mpjo³⁵		njo³⁵		mpjo³⁵							
青年女人	qo³¹phe⁵³		qo²²thei⁵³		ku⁵⁵ȵuŋ⁵⁵							
青年男人	qa³¹ȵõ⁵⁵		qa²²ȵoŋ⁵⁵		hou³⁵ȵuŋ⁵⁵							
青苔	tɤ³⁵		qa⁴⁴pei³³ti⁵⁵									
青草	so³¹mpjo³⁵		so²²njo³⁵		so¹³mpjo³⁵							
青菜	ji³⁵mpjo³⁵		ji³⁵njo³⁵		wi³⁵mpjo³⁵							
青蛙	kɤ⁵³tõ⁵³		kou⁵³a⁵³		kjou⁵³							
靠	khɔ⁵⁵		pheŋ⁵³		phɯŋ⁵³							
鞋	hɛ³⁵		hɛ³⁵		hai³⁵							
鞍子	a⁴⁴tɕhɤ⁵³mɦɪ³¹		a³³tɕhou⁵³mi²²		ŋei⁵⁵tsi¹³							
鞭子	tɦɤ³³pja³¹mpjɔ⁵³		tja²²hwa⁵⁵mei²²		pjei⁵⁵							
韭菜	ji³⁵hɛ⁵³		ji³⁵hɛ³¹		tɕu¹³tshei³⁵							
顶	ka³⁵		naŋ⁵⁵		tɯŋ³³							
顶针	a⁴⁴lɦjɤ⁵⁵va³¹		a³³ti²²kaŋ³⁵		ti¹³tɕiŋ³³							
项圈	qa³¹lɦja⁴⁴		lja⁴⁴ŋoŋ²²									
顿（一顿）	tẽ⁵⁵		teŋ⁵⁵		tɯŋ³⁵							
领子			ŋou²²kwei³⁵ou²²		ɴquŋ¹³kwei³⁵							
颜色	jẽ³¹sɤ³¹				ntai³³se³⁵							
额头	a⁴⁴pɦe³³ȵ̥i³⁵		pei²²ȵ̥i³⁵		tuŋ³³n̥n³⁵							
风	ɔ̃³⁵tɕi⁵⁵		aŋ³⁵tɕi⁵⁵		aŋ³⁵tɕi⁵⁵		ã³³ji⁵⁵	235				
风箱	a⁴⁴tho³¹the³¹		thu²²thei²²		naŋ³⁵thuŋ¹³							
飞	ji⁵⁵		jei⁵⁵		jei⁵⁵							
飞机	fe³³tɕi³³		hwi³³tɕi³³		fi⁵⁵tɕi⁵⁵							
飞蛾	qɤ³⁵tɕɦõ³¹ɔ̃³⁵		qa²²li⁵⁵lɔ²²ka³³ma²²									
食品	hɤ³⁵nɦɔ̃³³		qa⁴⁴hou³⁵naŋ³³		hou³⁵naŋ³³							
食槽	a⁴⁴ljõ³⁵pja³⁵		a³³ljoŋ³⁵tja³⁵		ntsau³³tsi¹³							
食道	hɤ³⁵lõ³³		tei³³he⁵³loŋ³³		qa¹³hei³⁵							
饭	ɪ̃⁵³; kõ⁵⁵		e⁵³		je⁵³				ie⁵²	559	lɛ⁴⁴	642
饭豆	tɦʉ³¹tɔ̃³⁵		tu³¹e⁵³		thu³¹taŋ³⁵							
饮											xɑu⁴⁴	642
饱	tɕʉ⁵⁵		tɕu⁵⁵kwa³¹		tɕo⁵⁵							
饼子	mpɦɪ³³qa¹³mpɦjo³¹				ɴqo¹³mpjei³³							
饿	sɛ³⁵		sɛ³⁵		ɕei³⁵				siei³²⁵	560		
馊（饭）	sɤ⁵⁵		sai⁵⁵		ɕou⁵⁵							
香（烧的）	ɕɔ̃³¹		hjaŋ²²		hjuŋ⁵⁵							
香（花）	tɕɔ⁵⁵ntɤ³⁵		tɕɔ⁵⁵nai³⁵		ntei³⁵							
马	mɦɪ³¹		mi²²		n̩²²me²²				ŋ̥²²mẽ²²	558		
马尾	tɦɤ³³tɤ³¹mɦɪ³¹		tai³³tai²²mi²²		tei³³tei¹³me²²							
马笼头	a⁴⁴lɦõ³³mɦɪ³¹		a³³loŋ³³qhou³³		luŋ³³thei³⁵							
马蹄	a⁴⁴pɦɔ³³lʉ³⁵mɦɪ³¹		pou³³lu³⁵		tsau¹³							
马蹬	a⁴⁴lɦja⁴⁴tɕhɤ⁵³mɦɪ³¹		a³³khwei³⁵l̥u⁵⁵		ma²²tha³⁵							
马铃薯	jɔ̃³¹ji³⁵		jaŋ³⁵hi⁵⁵		kwi³⁵tɕu⁵⁵nte³³				xou³²⁵de⁴⁴kwei³²⁵teiou⁴⁴	558		
马驹	tɔ̃³⁵mɦɪ³¹		taŋ³⁵mi²²		taŋ³⁵ȵei³⁵me²²							
马鬃	pi³⁵mɦɪ³¹				pi³⁵tsuŋ³⁵							
驼背	qõ³¹la³¹		koŋ²²la²²		nto³³tsi¹³							
骂	m̥ẽ³¹		m̥ei²²		m̥je¹³				mpe²¹²	559		
骑	tɕɦi³³		tɕi³³		tɕhi³³							
骗	vɦɔ³¹		vɔ²²		lja¹³							
骨头	qa³¹sõ³¹		qa²²soŋ²²		naŋ³⁵suŋ¹³							
骨节	a⁴⁴tɕɔ³⁵sõ³¹		a³³tɕɔ³⁵soŋ²²		ho³⁵kwe⁵⁵							
骨髓	qa³¹l̥ɔ³⁵sõ³¹		qa²²lɔ³³soŋ²²		l̥au³⁵suŋ¹³							
高	hĩ³⁵		hjeŋ³⁵		hiŋ³⁵		ɕẽ³³	236	xiŋ³²⁵	560		
高粱	qa³¹ji³¹jɦa³³		e⁵³qa²²jei²²jaŋ³³		kau⁵⁵ljaŋ³³							
鬼	ŋ̩³¹kwɤ³⁵		kwei³⁵		kwei³⁵; pjau³³				piao⁴⁴	559		
魂	tɦɤ³³kwi³⁵		tei³³kwi³⁵		ljaŋ³⁵lje²²							
鱗	qa³¹kwi⁵⁵mpɦjo³¹		qa²²kwi⁵⁵njo²²		ŋkwi⁵⁵mpjo²²							
鱼	ŋ̩³¹mpɦjo³¹		njo²²		mpjo²²		mjo⁵¹	236	ŋ²²bio²²	558		
鱼子	qo⁵⁵mpɦjo³¹		qo⁵⁵njo²²		qo⁵⁵mpjo²²							
鱼尾	tɦɤ³³tɤ³¹mpɦjo³¹		tai³³tai²²njo²²		tei³³tei¹³mpjo²²							
鱼笼	a⁴⁴tɕe³⁵tɕɦɔ̃³³mpɦjo³¹		a³³tɕhoŋ⁵⁵njo²²		naŋ³⁵tsa¹³							
鱼网	a⁴⁴pjo³¹mpɦjo³¹		a³³ȵ̥o²²njo²²		muŋ²²mpjo²²							
鱼翠鸟	tɔ̃³⁵mʉ⁵⁵nɦɔ³³mpɦjo³¹		ŋ̩³³tei⁵³njo²²		tɯŋ³⁵mpjo²²							
鱼钩	tɕɤ³⁵		tɕou³⁵		ɴqau³⁵tɕou³⁵							
鳃	a⁴⁴sɤ⁵⁵mpɦjo³¹		a³³sai⁵⁵njo²²		mpjo²²qai⁵³te⁵³							
鳏夫	qo³¹tɔ̃³⁵tɕi³¹sẽ³¹		qa²²thu⁵³		tai⁵⁵ɕiŋ¹³							
鳔	a⁴⁴phɔ⁵³mpɦjo³¹		a³³phɔ⁵³njo²²		phau⁵³mpjo²²							
鳝鱼	vɦɔ³³sɛ³¹		vaŋ³³sɛ²²		uŋ³³sei¹³							
鸟	tɔ̃³⁵mõ⁴⁴		taŋ³⁵moŋ⁴⁴		taŋ³⁵nuŋ³¹							
鸟尾	tɦɤ³³tɤ³¹mõ⁴⁴		tai³³tai²²moŋ⁴⁴		tei³³tei¹³nuŋ³¹							
鸟窝	a⁴⁴ȵ̥tɕo³¹tɔ̃³⁵mõ⁴⁴		a³³ȵ̥o²²taŋ³⁵moŋ⁴⁴		lo²²taŋ³⁵nuŋ³¹							
鸟蛋	qo⁵⁵mõ⁴⁴		qo⁵⁵moŋ⁴⁴		qo⁵⁵nuŋ³¹							
鸡	ŋ̩³¹qɛ³⁵		qɛ³³		qai³⁵		vei⁵¹	236			kae⁴⁴	642
鸡冠	a⁴⁴ji⁵⁵qɛ³⁵		a³³ji³⁵qɛ³⁵		i³⁵qai³⁵							
鸡虱	ŋ̩³¹qɛ³⁵		ŋ̥ŋ³⁵qɛ³⁵		ntaŋ¹³qai³⁵							
鸡蛋	qo⁵⁵qe³⁵		qo⁵⁵qɛ³⁵		qo⁵⁵qai³⁵							
鸭							a⁴²	236	ŋ²²a⁴⁵	558		
鸭子	a⁵³		a⁵³		a⁵³							
鸭蛋	qo⁵⁵a⁵³		qo⁵⁵a⁵³		qo⁵⁵a⁵³							
鸽子	qa³¹ɴqo³⁵		qa²²ŋo³⁵saŋ⁵⁵		qo³³tsi¹³							
鹅	ɴqɦo³³		ŋo³³		ɴqo³³		ŋo¹¹	236				
鹞鹰	ŋ̩³¹jɦɤ³¹		jou²²		taŋ³⁵hjau³¹							
麂子			tɕo⁵⁵tɕo⁵⁵		n̩²²tu⁵⁵							
麻子	qa³⁵ljɤ⁵⁵		qa⁴⁴ljou⁵⁵		ma³³tsi¹³							
麻布	ntɪ³⁵mpɦjo⁴⁴		ni³⁵njo⁴⁴		nti³⁵nto³¹							
麻雀	tɕo⁵³tɕo⁵³		taŋ³⁵moŋ⁴⁴		ma³³thjou³⁵							
黄	kɦwɤ³³		kwei³³		kwei³³		kwẽ³³	237	que⁴⁴	560		
黄土	qa³¹lɦe³³kɦwɤ³³		qa²²lei³³kwei³³		l̥ai¹³kwei³³							
黄昏	kwa⁵⁵sɔ̃³¹		a³³l̥a⁵⁵aŋ³⁵n̥ei³⁵pɛ³³kwa²²		ja¹³ŋaŋ³¹i¹³							
黄牛	ŋ̩ɦ³³kɦwɤ³³		ŋ̩³³kwei³³		n̩³³kwei³³							
黄瓜	pe³¹kwa³⁵		tjei²²kwa³⁵		pjei¹³kwa³⁵				xou³²⁵pie²¹²kwa³²⁵	558		
黄蜂	mɦa³¹ɴqɦɔ³³		ŋɔ³³kwei³³		ma²²kwei³³							
黄豆	tɦʉ³¹pɪ³¹		tu³¹pi²²		thu³¹pi¹³							
黄鼠狼	tɔ̃³⁵nɦe³¹jɪ⁵⁵		qa²²vaŋ⁵⁵kwei³³		n̩²²qa³⁵lja³⁵							
黑	kɦwɔ̃³³		kwaŋ³³		quŋ³¹		kwõ³³	237	qoŋ³¹	560		
鼎罐											tɕiɑŋ²⁴	642
鼎锅	a⁴⁴tɕɔ̃³⁵		a³³tɕaŋ³⁵		naŋ³⁵tɕaŋ³⁵							
鼓	a⁴⁴mpɦjo³¹		a³³njo²²		naŋ³⁵mpo²²							
鼻子	a⁴⁴qhõ³¹mpɦjɔ⁴⁴		a³³njɔ⁴⁴		kei⁵⁵mpjau³¹		khɔŋ³³mjau³³	236			lɑŋ⁴⁴bu⁴⁴	642
鼻孔	a⁴⁴tɕɦɔ̃³³mpɦjɔ⁴⁴		a³³qhoŋ²²njɔ⁴⁴		qhuŋ¹³mpjau³¹							
鼻尖	a⁴⁴pɔ³⁵mpɦjɔ⁴⁴		pɔ³⁵njɔ⁴⁴									
鼻梁	tɦɤ³³jɦe³³mpɦjɔ⁴⁴		tai³³jei³³njɔ⁴⁴		tjau³⁵mpjau³¹							
鼻毛	pi³⁵mpɦjɔ⁴⁴		ti³⁵njɔ⁴⁴		pi³⁵mpjau³¹							
鼻涕	qa³¹mpɦjɔ⁴⁴		qa²²njɔ⁴⁴		aŋ³⁵qa³⁵mpjau³¹							
齐（全）	kɦĩ³¹		keŋ³¹		ȵtɕi³³							
龙	ŋ̩³¹jɦõ³³		joŋ³³		juŋ³³				ioŋ⁴⁴baŋ³²⁵	558		
